0
SECTION
2
HEADER
9
$INSUNITS
70
1
9
$ACADVER
1
AC1014
9
$HANDSEED
5
FFFF
0
ENDSEC
0
SECTION
2
TABLES
0
TABLE
2
VPORT
5
8
100
AcDbSymbolTable
0
ENDTAB
0
TABLE
2
LTYPE
5
5
100
AcDbSymbolTable
0
LTYPE
5
14
100
AcDbSymbolTableRecord
100
AcDbLinetypeTableRecord
2
BYBLOCK
70
0
0
LTYPE
5
15
100
AcDbSymbolTableRecord
100
AcDbLinetypeTableRecord
2
BYLAYER
70
0
0
ENDTAB
0
TABLE
2
LAYER
5
2
100
AcDbSymbolTable
70
2
0
LAYER
5
50
100
AcDbSymbolTableRecord
100
AcDbLayerTableRecord
2
0
70
0
6
CONTINUOUS
0
ENDTAB
0
TABLE
2
STYLE
5
3
100
AcDbSymbolTable
70
1
0
STYLE
5
11
100
AcDbSymbolTableRecord
100
AcDbTextStyleTableRecord
2
STANDARD
70
0
0
ENDTAB
0
TABLE
2
VIEW
5
6
100
AcDbSymbolTable
70
0
0
ENDTAB
0
TABLE
2
UCS
5
7
100
AcDbSymbolTable
70
0
0
ENDTAB
0
TABLE
2
APPID
5
9
100
AcDbSymbolTable
70
2
0
APPID
5
12
100
AcDbSymbolTableRecord
100
AcDbRegAppTableRecord
2
ACAD
70
0
0
ENDTAB
0
TABLE
2
DIMSTYLE
5
A
100
AcDbSymbolTable
70
1
0
ENDTAB
0
TABLE
2
BLOCK_RECORD
5
1
100
AcDbSymbolTable
70
1
0
BLOCK_RECORD
5
1F
100
AcDbSymbolTableRecord
100
AcDbBlockTableRecord
2
*MODEL_SPACE
0
BLOCK_RECORD
5
1B
100
AcDbSymbolTableRecord
100
AcDbBlockTableRecord
2
*PAPER_SPACE
0
ENDTAB
0
ENDSEC
0
SECTION
2
BLOCKS
0
BLOCK
5
20
100
AcDbEntity
100
AcDbBlockBegin
2
*MODEL_SPACE
0
ENDBLK
5
21
100
AcDbEntity
100
AcDbBlockEnd
0
BLOCK
5
1C
100
AcDbEntity
100
AcDbBlockBegin
2
*PAPER_SPACE
0
ENDBLK
5
1D
100
AcDbEntity
100
AcDbBlockEnd
0
ENDSEC
0
SECTION
2
ENTITIES
0
LINE
5
100
100
AcDbEntity
8
0
100
AcDbLine
10
0
20
0
30
0
11
5.3863143142031701e-17
21
2.763447883117812
31
0
0
LINE
5
101
100
AcDbEntity
8
0
100
AcDbLine
10
0
20
0
30
0
11
1.3225168176580668
21
1.8202882373436291
31
0
0
LINE
5
102
100
AcDbEntity
8
0
100
AcDbLine
10
1.3225168176580668
20
1.8202882373436291
30
0
11
0.044083849800958641
21
2.7491241576959329
31
0
0
LINE
5
103
100
AcDbEntity
8
0
100
AcDbLine
10
-0.24508851847428523
20
2.763447883117812
30
0
11
0.24508851847428531
21
2.763447883117812
31
0
0
ARC
5
104
100
AcDbEntity
8
0
100
AcDbCircle
10
-4.4120976492616622e-08
20
2.6884478831178127
30
0
40
0.074999999999999081
100
AcDbArc
50
53.999999999999822
51
89.999966294056748
0
LWPOLYLINE
5
105
100
AcDbEntity
8
0
100
AcDbPolyline
90
4
70
1
43
0.0
10
1.0483401028720112
20
1.6981116066300681
10
0.18820604138639369
20
2.3230355817700366
42
0.99999999999999989
10
0.11179395861360635
20
2.2178633724829595
10
0.97192802009922363
20
1.5929393973429913
42
0.99999999999999989
0
ARC
5
106
100
AcDbEntity
8
0
100
AcDbCircle
10
4.4120976597419188e-08
20
2.6884478831178131
30
0
40
0.07500000000001196
100
AcDbArc
50
90.000033705943238
51
126.00000000000017
0
LINE
5
107
100
AcDbEntity
8
0
100
AcDbLine
10
-1.3225168176580668
20
1.8202882373436291
30
0
11
-0.04408384980095853
21
2.7491241576959333
31
0
0
ARC
5
108
100
AcDbEntity
8
0
100
AcDbCircle
10
-0.14999999999999991
20
2.270449477126498
30
0
40
0.064999999999999988
100
AcDbArc
50
-54.000000013747126
51
125.99999998625289
0
LINE
5
109
100
AcDbEntity
8
0
100
AcDbLine
10
-0.18820604138639357
20
2.3230355817700366
30
0
11
-1.0483401028720112
21
1.6981116066300681
31
0
0
LINE
5
110
100
AcDbEntity
8
0
100
AcDbLine
10
-0.11179395861360622
20
2.2178633724829595
30
0
11
-0.97192802009922363
21
1.5929393973429913
31
0
0
ARC
5
111
100
AcDbEntity
8
0
100
AcDbCircle
10
-1.0101340614856174
20
1.6455255019865298
30
0
40
0.065000000000000016
100
AcDbArc
50
125.99999998625312
51
305.99999998625287
0
LINE
5
112
100
AcDbEntity
8
0
100
AcDbLine
10
-2.1398771616640939
20
-0.69528823734363443
30
0
11
-2.6281951030471116
21
0.80759985175817817
31
0
0
ARC
5
113
100
AcDbEntity
8
0
100
AcDbCircle
10
-2.5568658643249753
20
0.83077612633629905
30
0
40
0.075000000000012654
100
AcDbArc
50
162.00003370594351
51
197.99999999999994
0
ARC
5
114
100
AcDbEntity
8
0
100
AcDbCircle
10
-2.5568658915932385
20
0.83077604241321423
30
0
40
0.074999999999999942
100
AcDbArc
50
126.00000000000026
51
161.99996629405675
0
LINE
5
115
100
AcDbEntity
8
0
100
AcDbLine
10
-1.3225168176580613
20
1.8202882373436331
30
0
11
-2.6009497855151742
21
0.89145231699133498
31
0
0
LWPOLYLINE
5
116
100
AcDbEntity
8
0
100
AcDbPolyline
90
4
70
1
43
0.0
10
-1.9389550165541911
20
-0.47228534133592104
10
-2.2674969928603264
20
0.53886289123798892
42
-0.99999999999999989
10
-2.1438596457323178
20
0.57903510047706785
10
-1.8153176694261821
20
-0.43211313209684238
42
-0.99999999999999989
0
LWPOLYLINE
5
117
100
AcDbEntity
8
0
100
AcDbPolyline
90
4
70
1
43
0.0
10
-2.0747671795722118
20
0.79167984612086928
42
-0.99999999999999989
10
-2.1511792623954658
20
0.89685205537127932
10
-1.2910452012097264
20
1.5217760309239947
42
-0.99999999999999989
10
-1.2146331183864711
20
1.4166038216735848
0
LINE
5
118
100
AcDbEntity
8
0
100
AcDbLine
10
2.9036370143862853e-15
20
-2.2499999999999996
30
0
11
-1.5802300529481892
21
-2.2500000000000027
31
0
0
ARC
5
119
100
AcDbEntity
8
0
100
AcDbCircle
10
-1.5802300529481892
20
-2.1750000000000034
30
0
40
0.075000000000012862
100
AcDbArc
50
234.00003370594331
51
270
0
ARC
5
120
100
AcDbEntity
8
0
100
AcDbCircle
10
-1.5802299815589491
20
-2.1750000518673218
30
0
40
0.074999999999999595
100
AcDbArc
50
198.00000000000003
51
233.99996629405669
0
LINE
5
121
100
AcDbEntity
8
0
100
AcDbLine
10
-2.1398771616640961
20
-0.69528823734362788
30
0
11
-1.6515592202810854
21
-2.1981763264454428
31
0
0
LWPOLYLINE
5
122
100
AcDbEntity
8
0
100
AcDbPolyline
90
4
70
1
43
0.0
10
-0.15000000001559424
20
-1.9899999999640128
10
-1.2131841695894658
20
-1.9899999997089213
42
-0.99999999999999989
10
-1.2131841695582752
20
-1.8599999997089207
10
-0.14999999998440314
20
-1.8599999999640136
42
-0.99999999999999989
0
ARC
5
123
100
AcDbEntity
8
0
100
AcDbCircle
10
-1.4558892678863546
20
-1.7486644240211793
30
0
40
0.065000000000000044
100
AcDbArc
50
-161.99999998625276
51
18.000000013747648
0
LINE
5
124
100
AcDbEntity
8
0
100
AcDbLine
10
-1.5177079414407202
20
-1.7687505286703833
30
0
11
-1.8462499182320691
21
-0.75760229625412845
31
0
0
LINE
5
125
100
AcDbEntity
8
0
100
AcDbLine
10
-1.3940705943319891
20
-1.7285783193719748
30
0
11
-1.7226125711233382
21
-0.71743008695572053
31
0
0
ARC
5
126
100
AcDbEntity
8
0
100
AcDbCircle
10
-1.7844312446777035
20
-0.73751619160492432
30
0
40
0.064999999999999628
100
AcDbArc
50
18.000000013747133
51
198.00000001374735
0
LINE
5
127
100
AcDbEntity
8
0
100
AcDbLine
10
2.1398771616640957
20
-0.69528823734362866
30
0
11
1.6515592202810849
21
-2.1981763264454424
31
0
0
ARC
5
128
100
AcDbEntity
8
0
100
AcDbCircle
10
1.5802299815589489
20
-2.1750000518673223
30
0
40
0.075000000000012237
100
AcDbArc
50
306.00003370594288
51
342.00000000000057
0
ARC
5
129
100
AcDbEntity
8
0
100
AcDbCircle
10
1.5802300529481881
20
-2.1750000000000034
30
0
40
0.074999999999999692
100
AcDbArc
50
270.00000000000034
51
305.99996629405661
0
LINE
5
130
100
AcDbEntity
8
0
100
AcDbLine
10
-3.6221026158379223e-15
20
-2.2499999999999996
30
0
11
1.5802300529481885
21
-2.2500000000000031
31
0
0
LWPOLYLINE
5
131
100
AcDbEntity
8
0
100
AcDbPolyline
90
4
70
1
43
0.0
10
1.8462499182320689
20
-0.757602296254129
10
1.5177079414407191
20
-1.7687505286703837
42
-0.99999999999999989
10
1.3940705943319884
20
-1.7285783193719755
10
1.7226125711233382
20
-0.71743008695572108
42
-0.99999999999999989
0
LWPOLYLINE
5
132
100
AcDbEntity
8
0
100
AcDbPolyline
90
4
70
1
43
0.0
10
1.2131841695582748
20
-1.8599999997089212
42
-0.99999999999999989
10
1.2131841695894656
20
-1.9899999997089217
10
0.15000000001559344
20
-1.9899999999640132
42
-0.99999999999999989
10
0.14999999998440275
20
-1.8599999999640127
0
LINE
5
133
100
AcDbEntity
8
0
100
AcDbLine
10
1.3225168176580617
20
1.8202882373436331
30
0
11
2.6009497855151738
21
0.8914523169913342
31
0
0
ARC
5
134
100
AcDbEntity
8
0
100
AcDbCircle
10
2.5568658915932394
20
0.83077604241321368
30
0
40
0.075000000000012237
100
AcDbArc
50
18.000033705943288
51
54.000000000000469
0
ARC
5
135
100
AcDbEntity
8
0
100
AcDbCircle
10
2.5568658643249753
20
0.83077612633629794
30
0
40
0.075000000000000316
100
AcDbArc
50
-17.999999999999286
51
17.999966294056716
0
LINE
5
136
100
AcDbEntity
8
0
100
AcDbLine
10
2.1398771616640939
20
-0.69528823734363521
30
0
11
2.6281951030471125
21
0.80759985175817761
31
0
0
LINE
5
137
100
AcDbEntity
8
0
100
AcDbLine
10
2.1511792623954662
20
0.89685205537127866
30
0
11
1.2910452012097273
21
1.5217760309239945
31
0
0
ARC
5
138
100
AcDbEntity
8
0
100
AcDbCircle
10
2.1129732209838386
20
0.8442659507460738
30
0
40
0.065000000000000141
100
AcDbArc
50
-126.00000001374758
51
53.999999986253115
0
LINE
5
139
100
AcDbEntity
8
0
100
AcDbLine
10
2.07476717957221
20
0.79167984612086906
30
0
11
1.2146331183864716
21
1.4166038216735848
31
0
0
ARC
5
140
100
AcDbEntity
8
0
100
AcDbCircle
10
1.2528391597980995
20
1.4691899262987895
30
0
40
0.065000000000000085
100
AcDbArc
50
53.999999986253016
51
233.9999999862529
0
LWPOLYLINE
5
141
100
AcDbEntity
8
0
100
AcDbPolyline
90
4
70
1
43
0.0
10
2.1438596457323178
20
0.57903510047706741
42
-0.99999999999999989
10
2.2674969928603268
20
0.53886289123798869
10
1.9389550165541911
20
-0.4722853413359217
42
-0.99999999999999989
10
1.8153176694261821
20
-0.43211313209684271
0
ENDSEC
0
SECTION
2
OBJECTS
0
DICTIONARY
5
C
100
AcDbDictionary
3
ACAD_GROUP
350
D
3
ACAD_MLINESTYLE
350
17
0
DICTIONARY
5
D
100
AcDbDictionary
0
DICTIONARY
5
1A
330
C
100
AcDbDictionary
0
DICTIONARY
5
17
100
AcDbDictionary
0
ENDSEC
0
EOF
