<?xml version="1.0" encoding="utf-8"?>
<!DOCTYPE eagle SYSTEM "eagle.dtd">
<eagle version="9.1.3">
<drawing>
<settings>
<setting alwaysvectorfont="no"/>
<setting verticaltext="up"/>
</settings>
<grid distance="0.1" unitdist="inch" unit="inch" style="lines" multiple="1" display="no" altdistance="0.01" altunitdist="inch" altunit="inch"/>
<layers>
<layer number="1" name="Top" color="4" fill="1" visible="no" active="no"/>
<layer number="2" name="Route2" color="1" fill="3" visible="no" active="no"/>
<layer number="3" name="Route3" color="4" fill="3" visible="no" active="no"/>
<layer number="4" name="Route4" color="1" fill="4" visible="no" active="no"/>
<layer number="5" name="Route5" color="4" fill="4" visible="no" active="no"/>
<layer number="6" name="Route6" color="1" fill="8" visible="no" active="no"/>
<layer number="7" name="Route7" color="4" fill="8" visible="no" active="no"/>
<layer number="8" name="Route8" color="1" fill="2" visible="no" active="no"/>
<layer number="9" name="Route9" color="4" fill="2" visible="no" active="no"/>
<layer number="10" name="Route10" color="1" fill="7" visible="no" active="no"/>
<layer number="11" name="Route11" color="4" fill="7" visible="no" active="no"/>
<layer number="12" name="Route12" color="1" fill="5" visible="no" active="no"/>
<layer number="13" name="Route13" color="4" fill="5" visible="no" active="no"/>
<layer number="14" name="Route14" color="1" fill="6" visible="no" active="no"/>
<layer number="15" name="Route15" color="4" fill="6" visible="no" active="no"/>
<layer number="16" name="Bottom" color="1" fill="1" visible="no" active="no"/>
<layer number="17" name="Pads" color="2" fill="1" visible="no" active="no"/>
<layer number="18" name="Vias" color="2" fill="1" visible="no" active="no"/>
<layer number="19" name="Unrouted" color="6" fill="1" visible="no" active="no"/>
<layer number="20" name="Dimension" color="15" fill="1" visible="no" active="no"/>
<layer number="21" name="tPlace" color="7" fill="1" visible="no" active="no"/>
<layer number="22" name="bPlace" color="7" fill="1" visible="no" active="no"/>
<layer number="23" name="tOrigins" color="15" fill="1" visible="no" active="no"/>
<layer number="24" name="bOrigins" color="15" fill="1" visible="no" active="no"/>
<layer number="25" name="tNames" color="7" fill="1" visible="no" active="no"/>
<layer number="26" name="bNames" color="7" fill="1" visible="no" active="no"/>
<layer number="27" name="tValues" color="7" fill="1" visible="no" active="no"/>
<layer number="28" name="bValues" color="7" fill="1" visible="no" active="no"/>
<layer number="29" name="tStop" color="7" fill="3" visible="no" active="no"/>
<layer number="30" name="bStop" color="7" fill="6" visible="no" active="no"/>
<layer number="31" name="tCream" color="7" fill="4" visible="no" active="no"/>
<layer number="32" name="bCream" color="7" fill="5" visible="no" active="no"/>
<layer number="33" name="tFinish" color="6" fill="3" visible="no" active="no"/>
<layer number="34" name="bFinish" color="6" fill="6" visible="no" active="no"/>
<layer number="35" name="tGlue" color="7" fill="4" visible="no" active="no"/>
<layer number="36" name="bGlue" color="7" fill="5" visible="no" active="no"/>
<layer number="37" name="tTest" color="7" fill="1" visible="no" active="no"/>
<layer number="38" name="bTest" color="7" fill="1" visible="no" active="no"/>
<layer number="39" name="tKeepout" color="4" fill="11" visible="no" active="no"/>
<layer number="40" name="bKeepout" color="1" fill="11" visible="no" active="no"/>
<layer number="41" name="tRestrict" color="4" fill="10" visible="no" active="no"/>
<layer number="42" name="bRestrict" color="1" fill="10" visible="no" active="no"/>
<layer number="43" name="vRestrict" color="2" fill="10" visible="no" active="no"/>
<layer number="44" name="Drills" color="7" fill="1" visible="no" active="no"/>
<layer number="45" name="Holes" color="7" fill="1" visible="no" active="no"/>
<layer number="46" name="Milling" color="3" fill="1" visible="no" active="no"/>
<layer number="47" name="Measures" color="7" fill="1" visible="no" active="no"/>
<layer number="48" name="Document" color="7" fill="1" visible="no" active="no"/>
<layer number="49" name="Reference" color="7" fill="1" visible="no" active="no"/>
<layer number="50" name="dxf" color="7" fill="1" visible="no" active="no"/>
<layer number="51" name="tDocu" color="7" fill="1" visible="no" active="no"/>
<layer number="52" name="bDocu" color="7" fill="1" visible="no" active="no"/>
<layer number="53" name="tGND_GNDA" color="7" fill="9" visible="no" active="no"/>
<layer number="54" name="bGND_GNDA" color="1" fill="9" visible="no" active="no"/>
<layer number="56" name="wert" color="7" fill="1" visible="no" active="no"/>
<layer number="57" name="tCAD" color="7" fill="1" visible="no" active="no"/>
<layer number="59" name="tCarbon" color="7" fill="1" visible="no" active="no"/>
<layer number="60" name="bCarbon" color="7" fill="1" visible="no" active="no"/>
<layer number="88" name="SimResults" color="9" fill="1" visible="yes" active="yes"/>
<layer number="89" name="SimProbes" color="9" fill="1" visible="yes" active="yes"/>
<layer number="90" name="Modules" color="5" fill="1" visible="yes" active="yes"/>
<layer number="91" name="Nets" color="2" fill="1" visible="yes" active="yes"/>
<layer number="92" name="Busses" color="1" fill="1" visible="yes" active="yes"/>
<layer number="93" name="Pins" color="2" fill="1" visible="no" active="yes"/>
<layer number="94" name="Symbols" color="4" fill="1" visible="yes" active="yes"/>
<layer number="95" name="Names" color="7" fill="1" visible="yes" active="yes"/>
<layer number="96" name="Values" color="7" fill="1" visible="yes" active="yes"/>
<layer number="97" name="Info" color="7" fill="1" visible="yes" active="yes"/>
<layer number="98" name="Guide" color="6" fill="1" visible="yes" active="yes"/>
<layer number="99" name="SpiceOrder" color="7" fill="1" visible="yes" active="yes"/>
<layer number="100" name="Muster" color="7" fill="1" visible="no" active="no"/>
<layer number="101" name="Patch_Top" color="12" fill="4" visible="no" active="yes"/>
<layer number="102" name="Vscore" color="7" fill="1" visible="no" active="yes"/>
<layer number="103" name="tMap" color="7" fill="1" visible="no" active="yes"/>
<layer number="104" name="Name" color="7" fill="1" visible="no" active="yes"/>
<layer number="105" name="tPlate" color="7" fill="1" visible="no" active="yes"/>
<layer number="106" name="bPlate" color="7" fill="1" visible="no" active="yes"/>
<layer number="107" name="Crop" color="7" fill="1" visible="no" active="yes"/>
<layer number="108" name="tplace-old" color="10" fill="1" visible="no" active="yes"/>
<layer number="109" name="ref-old" color="11" fill="1" visible="no" active="yes"/>
<layer number="110" name="fp0" color="7" fill="1" visible="no" active="yes"/>
<layer number="111" name="LPC17xx" color="7" fill="1" visible="no" active="yes"/>
<layer number="112" name="tSilk" color="7" fill="1" visible="no" active="yes"/>
<layer number="113" name="IDFDebug" color="7" fill="1" visible="no" active="yes"/>
<layer number="114" name="Badge_Outline" color="7" fill="1" visible="no" active="yes"/>
<layer number="115" name="ReferenceISLANDS" color="7" fill="1" visible="no" active="yes"/>
<layer number="116" name="Patch_BOT" color="9" fill="4" visible="no" active="yes"/>
<layer number="117" name="BACKMAAT1" color="7" fill="1" visible="yes" active="yes"/>
<layer number="118" name="Rect_Pads" color="7" fill="1" visible="no" active="yes"/>
<layer number="119" name="KAP_TEKEN" color="7" fill="1" visible="yes" active="yes"/>
<layer number="120" name="KAP_MAAT1" color="7" fill="1" visible="yes" active="yes"/>
<layer number="121" name="_tsilk" color="7" fill="1" visible="no" active="yes"/>
<layer number="122" name="_bsilk" color="7" fill="1" visible="no" active="yes"/>
<layer number="123" name="tTestmark" color="7" fill="1" visible="no" active="yes"/>
<layer number="124" name="bTestmark" color="7" fill="1" visible="no" active="yes"/>
<layer number="125" name="_tNames" color="7" fill="1" visible="no" active="yes"/>
<layer number="126" name="_bNames" color="7" fill="1" visible="no" active="yes"/>
<layer number="127" name="_tValues" color="7" fill="1" visible="no" active="yes"/>
<layer number="128" name="_bValues" color="7" fill="1" visible="no" active="yes"/>
<layer number="129" name="Mask" color="7" fill="1" visible="no" active="yes"/>
<layer number="130" name="SMDSTROOK" color="7" fill="1" visible="yes" active="yes"/>
<layer number="131" name="tAdjust" color="7" fill="1" visible="no" active="yes"/>
<layer number="132" name="bAdjust" color="7" fill="1" visible="no" active="yes"/>
<layer number="133" name="bottom_silk" color="7" fill="1" visible="yes" active="yes"/>
<layer number="144" name="Drill_legend" color="7" fill="1" visible="no" active="yes"/>
<layer number="150" name="Notes" color="7" fill="1" visible="no" active="yes"/>
<layer number="151" name="HeatSink" color="7" fill="1" visible="no" active="yes"/>
<layer number="152" name="_bDocu" color="7" fill="1" visible="no" active="yes"/>
<layer number="153" name="FabDoc1" color="7" fill="1" visible="no" active="yes"/>
<layer number="154" name="FabDoc2" color="7" fill="1" visible="no" active="yes"/>
<layer number="155" name="FabDoc3" color="7" fill="1" visible="no" active="yes"/>
<layer number="199" name="Contour" color="7" fill="1" visible="no" active="yes"/>
<layer number="200" name="200bmp" color="1" fill="10" visible="no" active="yes"/>
<layer number="201" name="201bmp" color="2" fill="10" visible="no" active="yes"/>
<layer number="202" name="202bmp" color="3" fill="10" visible="no" active="yes"/>
<layer number="203" name="203bmp" color="4" fill="10" visible="no" active="yes"/>
<layer number="204" name="204bmp" color="5" fill="10" visible="no" active="yes"/>
<layer number="205" name="205bmp" color="6" fill="10" visible="no" active="yes"/>
<layer number="206" name="206bmp" color="7" fill="10" visible="no" active="yes"/>
<layer number="207" name="207bmp" color="8" fill="10" visible="no" active="yes"/>
<layer number="208" name="208bmp" color="9" fill="10" visible="no" active="yes"/>
<layer number="209" name="209bmp" color="7" fill="1" visible="no" active="yes"/>
<layer number="210" name="210bmp" color="7" fill="1" visible="no" active="yes"/>
<layer number="211" name="211bmp" color="7" fill="1" visible="no" active="yes"/>
<layer number="212" name="212bmp" color="7" fill="1" visible="no" active="yes"/>
<layer number="213" name="213bmp" color="7" fill="1" visible="no" active="yes"/>
<layer number="214" name="214bmp" color="7" fill="1" visible="no" active="yes"/>
<layer number="215" name="215bmp" color="7" fill="1" visible="no" active="yes"/>
<layer number="216" name="216bmp" color="7" fill="1" visible="no" active="yes"/>
<layer number="217" name="217bmp" color="18" fill="1" visible="no" active="no"/>
<layer number="218" name="218bmp" color="19" fill="1" visible="no" active="no"/>
<layer number="219" name="219bmp" color="20" fill="1" visible="no" active="no"/>
<layer number="220" name="220bmp" color="21" fill="1" visible="no" active="no"/>
<layer number="221" name="221bmp" color="22" fill="1" visible="no" active="no"/>
<layer number="222" name="222bmp" color="23" fill="1" visible="no" active="no"/>
<layer number="223" name="223bmp" color="24" fill="1" visible="no" active="no"/>
<layer number="224" name="224bmp" color="25" fill="1" visible="no" active="no"/>
<layer number="225" name="225bmp" color="7" fill="1" visible="no" active="yes"/>
<layer number="226" name="226bmp" color="7" fill="1" visible="no" active="yes"/>
<layer number="227" name="227bmp" color="7" fill="1" visible="no" active="yes"/>
<layer number="228" name="228bmp" color="7" fill="1" visible="no" active="yes"/>
<layer number="229" name="229bmp" color="7" fill="1" visible="no" active="yes"/>
<layer number="230" name="230bmp" color="7" fill="1" visible="no" active="yes"/>
<layer number="231" name="231bmp" color="7" fill="1" visible="no" active="yes"/>
<layer number="232" name="Eagle3D_PG2" color="7" fill="1" visible="no" active="yes"/>
<layer number="233" name="Eagle3D_PG3" color="7" fill="1" visible="no" active="yes"/>
<layer number="248" name="Housing" color="7" fill="1" visible="no" active="yes"/>
<layer number="249" name="Edge" color="7" fill="1" visible="no" active="yes"/>
<layer number="250" name="Descript" color="3" fill="1" visible="no" active="no"/>
<layer number="251" name="SMDround" color="12" fill="11" visible="no" active="no"/>
<layer number="254" name="cooling" color="7" fill="1" visible="no" active="yes"/>
<layer number="255" name="routoute" color="7" fill="1" visible="no" active="yes"/>
</layers>
<schematic xreflabel="%F%N/%S.%C%R" xrefpart="/%S.%C%R">
<libraries>
<library name="fab">
<packages>
<package name="SOIC14">
<description>&lt;b&gt;Small Outline Package&lt;/b&gt;</description>
<wire x1="-4.267" y1="-1.791" x2="4.267" y2="-1.791" width="0.1524" layer="51"/>
<wire x1="4.267" y1="-1.791" x2="4.267" y2="1.791" width="0.1524" layer="21"/>
<wire x1="4.267" y1="1.791" x2="-4.267" y2="1.791" width="0.1524" layer="51"/>
<wire x1="-4.267" y1="1.791" x2="-4.267" y2="-1.791" width="0.1524" layer="21"/>
<circle x="-3.5052" y="-0.7747" radius="0.5334" width="0.1524" layer="21"/>
<smd name="1" x="-3.81" y="-2.6035" dx="0.6096" dy="2.2098" layer="1"/>
<smd name="14" x="-3.81" y="2.6035" dx="0.6096" dy="2.2098" layer="1"/>
<smd name="2" x="-2.54" y="-2.6035" dx="0.6096" dy="2.2098" layer="1"/>
<smd name="3" x="-1.27" y="-2.6035" dx="0.6096" dy="2.2098" layer="1"/>
<smd name="13" x="-2.54" y="2.6035" dx="0.6096" dy="2.2098" layer="1"/>
<smd name="12" x="-1.27" y="2.6035" dx="0.6096" dy="2.2098" layer="1"/>
<smd name="4" x="0" y="-2.6035" dx="0.6096" dy="2.2098" layer="1"/>
<smd name="11" x="0" y="2.6035" dx="0.6096" dy="2.2098" layer="1"/>
<smd name="5" x="1.27" y="-2.6035" dx="0.6096" dy="2.2098" layer="1"/>
<smd name="6" x="2.54" y="-2.6035" dx="0.6096" dy="2.2098" layer="1"/>
<smd name="10" x="1.27" y="2.6035" dx="0.6096" dy="2.2098" layer="1"/>
<smd name="9" x="2.54" y="2.6035" dx="0.6096" dy="2.2098" layer="1"/>
<smd name="7" x="3.81" y="-2.6035" dx="0.6096" dy="2.2098" layer="1"/>
<smd name="8" x="3.81" y="2.6035" dx="0.6096" dy="2.2098" layer="1"/>
<text x="-4.5085" y="-2.032" size="1.27" layer="25" ratio="10" rot="R90">&gt;NAME</text>
<text x="-2.54" y="-0.6985" size="1.27" layer="27" ratio="10">&gt;VALUE</text>
<rectangle x1="-3.9878" y1="1.8415" x2="-3.6322" y2="2.8575" layer="51"/>
<rectangle x1="-2.7178" y1="1.8415" x2="-2.3622" y2="2.8575" layer="51"/>
<rectangle x1="-1.4478" y1="1.8415" x2="-1.0922" y2="2.8575" layer="51"/>
<rectangle x1="-0.1778" y1="1.8415" x2="0.1778" y2="2.8575" layer="51"/>
<rectangle x1="1.0922" y1="1.8415" x2="1.4478" y2="2.8575" layer="51"/>
<rectangle x1="2.3622" y1="1.8415" x2="2.7178" y2="2.8575" layer="51"/>
<rectangle x1="3.6322" y1="1.8415" x2="3.9878" y2="2.8575" layer="51"/>
<rectangle x1="3.6322" y1="-2.8575" x2="3.9878" y2="-1.8415" layer="51"/>
<rectangle x1="2.3622" y1="-2.8575" x2="2.7178" y2="-1.8415" layer="51"/>
<rectangle x1="1.0922" y1="-2.8575" x2="1.4478" y2="-1.8415" layer="51"/>
<rectangle x1="-0.1778" y1="-2.8575" x2="0.1778" y2="-1.8415" layer="51"/>
<rectangle x1="-1.4478" y1="-2.8575" x2="-1.0922" y2="-1.8415" layer="51"/>
<rectangle x1="-2.7178" y1="-2.8575" x2="-2.3622" y2="-1.8415" layer="51"/>
<rectangle x1="-3.9878" y1="-2.8575" x2="-3.6322" y2="-1.8415" layer="51"/>
</package>
<package name="DIL14">
<description>&lt;b&gt;Dual In Line Package&lt;/b&gt;</description>
<wire x1="8.89" y1="2.921" x2="-8.89" y2="2.921" width="0.1524" layer="21"/>
<wire x1="-8.89" y1="-2.921" x2="8.89" y2="-2.921" width="0.1524" layer="21"/>
<wire x1="8.89" y1="2.921" x2="8.89" y2="-2.921" width="0.1524" layer="21"/>
<wire x1="-8.89" y1="2.921" x2="-8.89" y2="1.016" width="0.1524" layer="21"/>
<wire x1="-8.89" y1="-2.921" x2="-8.89" y2="-1.016" width="0.1524" layer="21"/>
<wire x1="-8.89" y1="1.016" x2="-8.89" y2="-1.016" width="0.1524" layer="21" curve="-180"/>
<pad name="1" x="-7.62" y="-3.81" drill="0.8128" shape="long" rot="R90"/>
<pad name="2" x="-5.08" y="-3.81" drill="0.8128" shape="long" rot="R90"/>
<pad name="7" x="7.62" y="-3.81" drill="0.8128" shape="long" rot="R90"/>
<pad name="8" x="7.62" y="3.81" drill="0.8128" shape="long" rot="R90"/>
<pad name="3" x="-2.54" y="-3.81" drill="0.8128" shape="long" rot="R90"/>
<pad name="4" x="0" y="-3.81" drill="0.8128" shape="long" rot="R90"/>
<pad name="6" x="5.08" y="-3.81" drill="0.8128" shape="long" rot="R90"/>
<pad name="5" x="2.54" y="-3.81" drill="0.8128" shape="long" rot="R90"/>
<pad name="9" x="5.08" y="3.81" drill="0.8128" shape="long" rot="R90"/>
<pad name="10" x="2.54" y="3.81" drill="0.8128" shape="long" rot="R90"/>
<pad name="11" x="0" y="3.81" drill="0.8128" shape="long" rot="R90"/>
<pad name="12" x="-2.54" y="3.81" drill="0.8128" shape="long" rot="R90"/>
<pad name="13" x="-5.08" y="3.81" drill="0.8128" shape="long" rot="R90"/>
<pad name="14" x="-7.62" y="3.81" drill="0.8128" shape="long" rot="R90"/>
<text x="-9.271" y="-3.048" size="1.27" layer="25" ratio="10" rot="R90">&gt;NAME</text>
<text x="-6.731" y="-0.635" size="1.27" layer="27" ratio="10">&gt;VALUE</text>
</package>
<package name="QFN/MLF20">
<description>&lt;b&gt;HP-VFQFP-N20&lt;/b&gt; Micro Lead Frame package (MLF)</description>
<wire x1="-2.375" y1="2.05" x2="-2.05" y2="2.375" width="0.254" layer="21"/>
<wire x1="-2.05" y1="2.375" x2="2.05" y2="2.375" width="0.254" layer="51"/>
<wire x1="2.05" y1="-2.375" x2="-2.05" y2="-2.375" width="0.254" layer="51"/>
<wire x1="-2.05" y1="-2.375" x2="-2.375" y2="-2.05" width="0.254" layer="21"/>
<wire x1="-2.375" y1="-2.05" x2="-2.375" y2="2.05" width="0.254" layer="51"/>
<wire x1="2.375" y1="2.05" x2="2.375" y2="-2.05" width="0.254" layer="51"/>
<wire x1="2.05" y1="2.375" x2="2.375" y2="2.05" width="0.254" layer="21"/>
<wire x1="2.375" y1="-2.05" x2="2.05" y2="-2.375" width="0.254" layer="21"/>
<circle x="-1.55" y="1.55" radius="0.15" width="0.254" layer="21"/>
<smd name="1" x="-2.25" y="1.3" dx="0.9" dy="0.35" layer="1" roundness="50"/>
<smd name="2" x="-2.25" y="0.65" dx="0.9" dy="0.35" layer="1" roundness="50"/>
<smd name="3" x="-2.25" y="0" dx="0.9" dy="0.35" layer="1" roundness="50"/>
<smd name="4" x="-2.25" y="-0.65" dx="0.9" dy="0.35" layer="1" roundness="50"/>
<smd name="5" x="-2.25" y="-1.3" dx="0.9" dy="0.35" layer="1" roundness="50"/>
<smd name="6" x="-1.3" y="-2.25" dx="0.35" dy="0.9" layer="1" roundness="50"/>
<smd name="7" x="-0.65" y="-2.25" dx="0.35" dy="0.9" layer="1" roundness="50"/>
<smd name="8" x="0" y="-2.25" dx="0.35" dy="0.9" layer="1" roundness="50"/>
<smd name="9" x="0.65" y="-2.25" dx="0.35" dy="0.9" layer="1" roundness="50"/>
<smd name="10" x="1.3" y="-2.25" dx="0.35" dy="0.9" layer="1" roundness="50"/>
<smd name="11" x="2.25" y="-1.3" dx="0.9" dy="0.35" layer="1" roundness="50"/>
<smd name="12" x="2.25" y="-0.65" dx="0.9" dy="0.35" layer="1" roundness="50"/>
<smd name="13" x="2.25" y="0" dx="0.9" dy="0.35" layer="1" roundness="50"/>
<smd name="14" x="2.25" y="0.65" dx="0.9" dy="0.35" layer="1" roundness="50"/>
<smd name="15" x="2.25" y="1.3" dx="0.9" dy="0.35" layer="1" roundness="50"/>
<smd name="16" x="1.3" y="2.25" dx="0.35" dy="0.9" layer="1" roundness="50"/>
<smd name="17" x="0.65" y="2.25" dx="0.35" dy="0.9" layer="1" roundness="50"/>
<smd name="18" x="0" y="2.25" dx="0.35" dy="0.9" layer="1" roundness="50"/>
<smd name="19" x="-0.65" y="2.25" dx="0.35" dy="0.9" layer="1" roundness="50"/>
<smd name="20" x="-1.3" y="2.25" dx="0.35" dy="0.9" layer="1" roundness="50"/>
<text x="-2.54" y="3.175" size="1.27" layer="25">&gt;NAME</text>
<text x="-2.54" y="-4.445" size="1.27" layer="27">&gt;VALUE</text>
<rectangle x1="-2.35" y1="1.15" x2="-1.9" y2="1.45" layer="51"/>
<rectangle x1="-2.35" y1="0.5" x2="-1.9" y2="0.8" layer="51"/>
<rectangle x1="-2.35" y1="-0.15" x2="-1.9" y2="0.15" layer="51"/>
<rectangle x1="-2.35" y1="-0.8" x2="-1.9" y2="-0.5" layer="51"/>
<rectangle x1="-2.35" y1="-1.45" x2="-1.9" y2="-1.15" layer="51"/>
<rectangle x1="-1.45" y1="-2.35" x2="-1.15" y2="-1.9" layer="51"/>
<rectangle x1="-0.8" y1="-2.35" x2="-0.5" y2="-1.9" layer="51"/>
<rectangle x1="-0.15" y1="-2.35" x2="0.15" y2="-1.9" layer="51"/>
<rectangle x1="0.5" y1="-2.35" x2="0.8" y2="-1.9" layer="51"/>
<rectangle x1="1.15" y1="-2.35" x2="1.45" y2="-1.9" layer="51"/>
<rectangle x1="1.9" y1="-1.45" x2="2.35" y2="-1.15" layer="51"/>
<rectangle x1="1.9" y1="-0.8" x2="2.35" y2="-0.5" layer="51"/>
<rectangle x1="1.9" y1="-0.15" x2="2.35" y2="0.15" layer="51"/>
<rectangle x1="1.9" y1="0.5" x2="2.35" y2="0.8" layer="51"/>
<rectangle x1="1.9" y1="1.15" x2="2.35" y2="1.45" layer="51"/>
<rectangle x1="1.15" y1="1.9" x2="1.45" y2="2.35" layer="51"/>
<rectangle x1="0.5" y1="1.9" x2="0.8" y2="2.35" layer="51"/>
<rectangle x1="-0.15" y1="1.9" x2="0.15" y2="2.35" layer="51"/>
<rectangle x1="-0.8" y1="1.9" x2="-0.5" y2="2.35" layer="51"/>
<rectangle x1="-1.45" y1="1.9" x2="-1.15" y2="2.35" layer="51"/>
</package>
<package name="1X06SMD">
<smd name="1" x="0" y="6.35" dx="2.54" dy="1.27" layer="1"/>
<smd name="2" x="0" y="3.81" dx="2.54" dy="1.27" layer="1"/>
<smd name="3" x="0" y="1.27" dx="2.54" dy="1.27" layer="1"/>
<smd name="4" x="0" y="-1.27" dx="2.54" dy="1.27" layer="1"/>
<smd name="5" x="0" y="-3.81" dx="2.54" dy="1.27" layer="1"/>
<smd name="6" x="0" y="-6.35" dx="2.54" dy="1.27" layer="1"/>
<text x="-1.905" y="-3.175" size="1.27" layer="25" rot="R90">&gt;NAME</text>
</package>
<package name="2X03SMD">
<smd name="1" x="-2.54" y="2.54" dx="2.54" dy="1.27" layer="1"/>
<smd name="3" x="-2.54" y="0" dx="2.54" dy="1.27" layer="1"/>
<smd name="5" x="-2.54" y="-2.54" dx="2.54" dy="1.27" layer="1"/>
<smd name="2" x="2.92" y="2.54" dx="2.54" dy="1.27" layer="1"/>
<smd name="4" x="2.92" y="0" dx="2.54" dy="1.27" layer="1"/>
<smd name="6" x="2.92" y="-2.54" dx="2.54" dy="1.27" layer="1"/>
<text x="-5.08" y="2.54" size="1.27" layer="27">1</text>
<text x="-3.81" y="3.81" size="1.27" layer="25">&gt;NAME</text>
<text x="-3.81" y="-5.08" size="1.27" layer="27">&gt;VALUE</text>
</package>
<package name="2X03">
<description>&lt;b&gt;PIN HEADER&lt;/b&gt;</description>
<wire x1="-3.81" y1="-1.905" x2="-3.175" y2="-2.54" width="0.1524" layer="21"/>
<wire x1="-1.905" y1="-2.54" x2="-1.27" y2="-1.905" width="0.1524" layer="21"/>
<wire x1="-1.27" y1="-1.905" x2="-0.635" y2="-2.54" width="0.1524" layer="21"/>
<wire x1="0.635" y1="-2.54" x2="1.27" y2="-1.905" width="0.1524" layer="21"/>
<wire x1="-3.81" y1="-1.905" x2="-3.81" y2="1.905" width="0.1524" layer="21"/>
<wire x1="-3.81" y1="1.905" x2="-3.175" y2="2.54" width="0.1524" layer="21"/>
<wire x1="-3.175" y1="2.54" x2="-1.905" y2="2.54" width="0.1524" layer="21"/>
<wire x1="-1.905" y1="2.54" x2="-1.27" y2="1.905" width="0.1524" layer="21"/>
<wire x1="-1.27" y1="1.905" x2="-0.635" y2="2.54" width="0.1524" layer="21"/>
<wire x1="-0.635" y1="2.54" x2="0.635" y2="2.54" width="0.1524" layer="21"/>
<wire x1="0.635" y1="2.54" x2="1.27" y2="1.905" width="0.1524" layer="21"/>
<wire x1="-1.27" y1="1.905" x2="-1.27" y2="-1.905" width="0.1524" layer="21"/>
<wire x1="1.27" y1="1.905" x2="1.27" y2="-1.905" width="0.1524" layer="21"/>
<wire x1="-0.635" y1="-2.54" x2="0.635" y2="-2.54" width="0.1524" layer="21"/>
<wire x1="-3.175" y1="-2.54" x2="-1.905" y2="-2.54" width="0.1524" layer="21"/>
<wire x1="1.27" y1="-1.905" x2="1.905" y2="-2.54" width="0.1524" layer="21"/>
<wire x1="3.175" y1="-2.54" x2="3.81" y2="-1.905" width="0.1524" layer="21"/>
<wire x1="1.27" y1="1.905" x2="1.905" y2="2.54" width="0.1524" layer="21"/>
<wire x1="1.905" y1="2.54" x2="3.175" y2="2.54" width="0.1524" layer="21"/>
<wire x1="3.175" y1="2.54" x2="3.81" y2="1.905" width="0.1524" layer="21"/>
<wire x1="3.81" y1="1.905" x2="3.81" y2="-1.905" width="0.1524" layer="21"/>
<wire x1="1.905" y1="-2.54" x2="3.175" y2="-2.54" width="0.1524" layer="21"/>
<wire x1="-3.175" y1="-2.921" x2="-1.905" y2="-2.921" width="0.127" layer="21"/>
<pad name="1" x="-2.54" y="-1.27" drill="1.016" shape="square"/>
<pad name="2" x="-2.54" y="1.27" drill="1.016" shape="octagon"/>
<pad name="3" x="0" y="-1.27" drill="1.016" shape="octagon"/>
<pad name="4" x="0" y="1.27" drill="1.016" shape="octagon"/>
<pad name="5" x="2.54" y="-1.27" drill="1.016" shape="octagon"/>
<pad name="6" x="2.54" y="1.27" drill="1.016" shape="octagon"/>
<text x="-3.81" y="3.175" size="1.27" layer="25" ratio="10">&gt;NAME</text>
<text x="-3.81" y="-4.445" size="1.27" layer="27">&gt;VALUE</text>
<text x="-5.08" y="-2.54" size="1.27" layer="21">1</text>
<rectangle x1="-2.794" y1="-1.524" x2="-2.286" y2="-1.016" layer="51"/>
<rectangle x1="-2.794" y1="1.016" x2="-2.286" y2="1.524" layer="51"/>
<rectangle x1="-0.254" y1="1.016" x2="0.254" y2="1.524" layer="51"/>
<rectangle x1="-0.254" y1="-1.524" x2="0.254" y2="-1.016" layer="51"/>
<rectangle x1="2.286" y1="1.016" x2="2.794" y2="1.524" layer="51"/>
<rectangle x1="2.286" y1="-1.524" x2="2.794" y2="-1.016" layer="51"/>
</package>
<package name="6MM_SWITCH">
<description>&lt;b&gt;OMRON SWITCH&lt;/b&gt;</description>
<wire x1="3.302" y1="-0.762" x2="3.048" y2="-0.762" width="0.1524" layer="21"/>
<wire x1="3.302" y1="-0.762" x2="3.302" y2="0.762" width="0.1524" layer="21"/>
<wire x1="3.048" y1="0.762" x2="3.302" y2="0.762" width="0.1524" layer="21"/>
<wire x1="3.048" y1="1.016" x2="3.048" y2="2.54" width="0.1524" layer="51"/>
<wire x1="-3.302" y1="0.762" x2="-3.048" y2="0.762" width="0.1524" layer="21"/>
<wire x1="-3.302" y1="0.762" x2="-3.302" y2="-0.762" width="0.1524" layer="21"/>
<wire x1="-3.048" y1="-0.762" x2="-3.302" y2="-0.762" width="0.1524" layer="21"/>
<wire x1="3.048" y1="2.54" x2="2.54" y2="3.048" width="0.1524" layer="51"/>
<wire x1="2.54" y1="-3.048" x2="3.048" y2="-2.54" width="0.1524" layer="51"/>
<wire x1="3.048" y1="-2.54" x2="3.048" y2="-1.016" width="0.1524" layer="51"/>
<wire x1="-2.54" y1="3.048" x2="-3.048" y2="2.54" width="0.1524" layer="51"/>
<wire x1="-3.048" y1="2.54" x2="-3.048" y2="1.016" width="0.1524" layer="51"/>
<wire x1="-2.54" y1="-3.048" x2="-3.048" y2="-2.54" width="0.1524" layer="51"/>
<wire x1="-3.048" y1="-2.54" x2="-3.048" y2="-1.016" width="0.1524" layer="51"/>
<wire x1="-1.27" y1="1.27" x2="-1.27" y2="-1.27" width="0.0508" layer="51"/>
<wire x1="1.27" y1="-1.27" x2="-1.27" y2="-1.27" width="0.0508" layer="51"/>
<wire x1="1.27" y1="-1.27" x2="1.27" y2="1.27" width="0.0508" layer="51"/>
<wire x1="-1.27" y1="1.27" x2="1.27" y2="1.27" width="0.0508" layer="51"/>
<wire x1="-1.27" y1="3.048" x2="-1.27" y2="2.794" width="0.0508" layer="21"/>
<wire x1="1.27" y1="2.794" x2="-1.27" y2="2.794" width="0.0508" layer="21"/>
<wire x1="1.27" y1="2.794" x2="1.27" y2="3.048" width="0.0508" layer="21"/>
<wire x1="1.143" y1="-2.794" x2="-1.27" y2="-2.794" width="0.0508" layer="21"/>
<wire x1="1.143" y1="-2.794" x2="1.143" y2="-3.048" width="0.0508" layer="21"/>
<wire x1="-1.27" y1="-2.794" x2="-1.27" y2="-3.048" width="0.0508" layer="21"/>
<wire x1="2.54" y1="-3.048" x2="2.159" y2="-3.048" width="0.1524" layer="51"/>
<wire x1="-2.54" y1="-3.048" x2="-2.159" y2="-3.048" width="0.1524" layer="51"/>
<wire x1="-2.159" y1="-3.048" x2="-1.27" y2="-3.048" width="0.1524" layer="21"/>
<wire x1="-2.54" y1="3.048" x2="-2.159" y2="3.048" width="0.1524" layer="51"/>
<wire x1="2.54" y1="3.048" x2="2.159" y2="3.048" width="0.1524" layer="51"/>
<wire x1="2.159" y1="3.048" x2="1.27" y2="3.048" width="0.1524" layer="21"/>
<wire x1="1.27" y1="3.048" x2="-1.27" y2="3.048" width="0.1524" layer="21"/>
<wire x1="-1.27" y1="3.048" x2="-2.159" y2="3.048" width="0.1524" layer="21"/>
<wire x1="-1.27" y1="-3.048" x2="1.143" y2="-3.048" width="0.1524" layer="21"/>
<wire x1="1.143" y1="-3.048" x2="2.159" y2="-3.048" width="0.1524" layer="21"/>
<wire x1="3.048" y1="-0.762" x2="3.048" y2="-1.016" width="0.1524" layer="21"/>
<wire x1="3.048" y1="0.762" x2="3.048" y2="1.016" width="0.1524" layer="21"/>
<wire x1="-3.048" y1="-0.762" x2="-3.048" y2="-1.016" width="0.1524" layer="21"/>
<wire x1="-3.048" y1="0.762" x2="-3.048" y2="1.016" width="0.1524" layer="21"/>
<wire x1="-1.27" y1="-2.159" x2="1.27" y2="-2.159" width="0.1524" layer="51"/>
<wire x1="1.27" y1="2.286" x2="-1.27" y2="2.286" width="0.1524" layer="51"/>
<wire x1="-2.413" y1="1.27" x2="-2.413" y2="0.508" width="0.1524" layer="51"/>
<wire x1="-2.413" y1="-0.508" x2="-2.413" y2="-1.27" width="0.1524" layer="51"/>
<wire x1="-2.413" y1="0.508" x2="-2.159" y2="-0.381" width="0.1524" layer="51"/>
<circle x="0" y="0" radius="1.778" width="0.1524" layer="21"/>
<circle x="-2.159" y="-2.159" radius="0.508" width="0.1524" layer="51"/>
<circle x="2.159" y="-2.032" radius="0.508" width="0.1524" layer="51"/>
<circle x="2.159" y="2.159" radius="0.508" width="0.1524" layer="51"/>
<circle x="-2.159" y="2.159" radius="0.508" width="0.1524" layer="51"/>
<circle x="0" y="0" radius="0.635" width="0.0508" layer="51"/>
<circle x="0" y="0" radius="0.254" width="0.1524" layer="21"/>
<smd name="1" x="-3.302" y="2.286" dx="2.286" dy="1.524" layer="1"/>
<smd name="2" x="3.302" y="2.286" dx="2.286" dy="1.524" layer="1"/>
<smd name="3" x="-3.302" y="-2.286" dx="2.286" dy="1.524" layer="1"/>
<smd name="4" x="3.302" y="-2.286" dx="2.286" dy="1.524" layer="1"/>
<text x="-3.048" y="3.683" size="1.27" layer="25" ratio="10">&gt;NAME</text>
<text x="-3.048" y="-5.08" size="1.27" layer="27" ratio="10">&gt;VALUE</text>
<text x="-4.318" y="1.651" size="1.27" layer="51" ratio="10">1</text>
<text x="3.556" y="1.524" size="1.27" layer="51" ratio="10">2</text>
<text x="-4.572" y="-2.794" size="1.27" layer="51" ratio="10">3</text>
<text x="3.556" y="-2.794" size="1.27" layer="51" ratio="10">4</text>
</package>
<package name="LED1206">
<description>LED 1206 pads (standard pattern)</description>
<wire x1="0.9525" y1="-0.8128" x2="-0.9652" y2="-0.8128" width="0.1524" layer="51"/>
<wire x1="0.9525" y1="0.8128" x2="-0.9652" y2="0.8128" width="0.1524" layer="51"/>
<wire x1="-2.473" y1="0.983" x2="2.473" y2="0.983" width="0.0508" layer="39"/>
<wire x1="2.473" y1="0.983" x2="2.473" y2="-0.983" width="0.0508" layer="39"/>
<wire x1="2.473" y1="-0.983" x2="-2.473" y2="-0.983" width="0.0508" layer="39"/>
<wire x1="-2.473" y1="-0.983" x2="-2.473" y2="0.983" width="0.0508" layer="39"/>
<smd name="2" x="1.422" y="0" dx="1.6" dy="1.803" layer="1"/>
<smd name="1" x="-1.422" y="0" dx="1.6" dy="1.803" layer="1"/>
<text x="-1.27" y="1.27" size="1.27" layer="25">&gt;NAME</text>
<text x="-1.27" y="-2.54" size="1.27" layer="27">&gt;VALUE</text>
<rectangle x1="-1.6891" y1="-0.8763" x2="-0.9525" y2="0.8763" layer="51"/>
<rectangle x1="0.9525" y1="-0.8763" x2="1.6891" y2="0.8763" layer="51"/>
</package>
<package name="LED1206FAB">
<description>LED1206 FAB style (smaller pads to allow trace between)</description>
<wire x1="-2.032" y1="1.016" x2="2.032" y2="1.016" width="0.127" layer="21"/>
<wire x1="2.032" y1="1.016" x2="2.032" y2="-1.016" width="0.127" layer="21"/>
<wire x1="2.032" y1="-1.016" x2="-2.032" y2="-1.016" width="0.127" layer="21"/>
<wire x1="-2.032" y1="-1.016" x2="-2.032" y2="1.016" width="0.127" layer="21"/>
<smd name="1" x="-1.651" y="0" dx="1.27" dy="1.905" layer="1"/>
<smd name="2" x="1.651" y="0" dx="1.27" dy="1.905" layer="1"/>
<text x="-1.778" y="1.27" size="1.016" layer="25" ratio="15">&gt;NAME</text>
<text x="-1.778" y="-2.286" size="1.016" layer="27" ratio="15">&gt;VALUE</text>
</package>
<package name="5MM">
<description>5mm round through hole part.</description>
<wire x1="2.54" y1="-1.905" x2="2.54" y2="1.905" width="0.2032" layer="21"/>
<wire x1="2.54" y1="-1.905" x2="2.54" y2="1.905" width="0.254" layer="21" curve="-286.260205" cap="flat"/>
<wire x1="-1.143" y1="0" x2="0" y2="1.143" width="0.1524" layer="51" curve="-90" cap="flat"/>
<wire x1="0" y1="-1.143" x2="1.143" y2="0" width="0.1524" layer="51" curve="90" cap="flat"/>
<wire x1="-1.651" y1="0" x2="0" y2="1.651" width="0.1524" layer="51" curve="-90" cap="flat"/>
<wire x1="0" y1="-1.651" x2="1.651" y2="0" width="0.1524" layer="51" curve="90" cap="flat"/>
<wire x1="-2.159" y1="0" x2="0" y2="2.159" width="0.1524" layer="51" curve="-90" cap="flat"/>
<wire x1="0" y1="-2.159" x2="2.159" y2="0" width="0.1524" layer="51" curve="90" cap="flat"/>
<circle x="0" y="0" radius="2.54" width="0.1524" layer="21"/>
<pad name="IN" x="-1.27" y="0" drill="0.8128" diameter="1.4224"/>
<pad name="OUT" x="1.27" y="0" drill="0.8128" diameter="1.4224"/>
<text x="3.175" y="0.5334" size="1.27" layer="25" ratio="10">&gt;NAME</text>
<text x="3.2004" y="-1.8034" size="1.27" layer="27" ratio="10">&gt;VALUE</text>
</package>
</packages>
<symbols>
<symbol name="ATTINY24/44/84">
<wire x1="-2.54" y1="17.78" x2="45.72" y2="17.78" width="0.254" layer="94"/>
<wire x1="45.72" y1="17.78" x2="45.72" y2="-17.78" width="0.254" layer="94"/>
<wire x1="45.72" y1="-17.78" x2="-2.54" y2="-17.78" width="0.254" layer="94"/>
<wire x1="-2.54" y1="-17.78" x2="-2.54" y2="17.78" width="0.254" layer="94"/>
<text x="-2.54" y="-20.32" size="1.778" layer="96">&gt;VALUE</text>
<text x="-2.54" y="18.542" size="1.778" layer="95">&gt;NAME</text>
<pin name="GND" x="-7.62" y="-15.24" length="middle" direction="pwr"/>
<pin name="VCC" x="-7.62" y="-2.54" length="middle" direction="pwr"/>
<pin name="(PCINT7/ICP/OC0B/ADC7)PA7" x="50.8" y="2.54" length="middle" rot="R180"/>
<pin name="(PCINT6/OC1A/SDA/MOSI/ADC6)PA6" x="50.8" y="0" length="middle" rot="R180"/>
<pin name="(PCINT5/OC1B/MISO/DO/ADC5)PA5" x="50.8" y="-2.54" length="middle" rot="R180"/>
<pin name="(PCINT4/T1/SCL/USCK/ADC4)PA4" x="50.8" y="-5.08" length="middle" rot="R180"/>
<pin name="(PCINT3/T0/ADC3)PA3" x="50.8" y="-7.62" length="middle" rot="R180"/>
<pin name="(PCINT2/AIN1/ADC2)PA2" x="50.8" y="-10.16" length="middle" rot="R180"/>
<pin name="(PCINT1/AIN0/ADC1)PA1" x="50.8" y="-12.7" length="middle" rot="R180"/>
<pin name="(PCINT0/AREF/ADC0)PA0" x="50.8" y="-15.24" length="middle" rot="R180"/>
<pin name="(PCINT11/RESET/DW)PB3" x="50.8" y="15.24" length="middle" rot="R180"/>
<pin name="(PCINT10/INT0/OC0A/CKOUT)PB2" x="50.8" y="12.7" length="middle" rot="R180"/>
<pin name="(PCINT9/XTAL2)PB1" x="50.8" y="10.16" length="middle" rot="R180"/>
<pin name="(PCINT8/XTAL1/CLKI)PB0" x="50.8" y="7.62" length="middle" rot="R180"/>
</symbol>
<symbol name="FTDI">
<pin name="GND" x="0" y="12.7" length="middle"/>
<pin name="CTS" x="0" y="10.16" length="middle"/>
<pin name="VCC" x="0" y="7.62" length="middle"/>
<pin name="TXD" x="0" y="5.08" length="middle"/>
<pin name="RXD" x="0" y="2.54" length="middle"/>
<wire x1="12.7" y1="17.018" x2="2.54" y2="17.018" width="0.254" layer="94"/>
<wire x1="2.54" y1="17.018" x2="2.54" y2="-4.064" width="0.254" layer="94"/>
<wire x1="2.54" y1="-4.064" x2="12.7" y2="-4.064" width="0.254" layer="94"/>
<wire x1="12.7" y1="-4.064" x2="12.7" y2="17.018" width="0.254" layer="94"/>
<pin name="RTS" x="0" y="0" length="middle"/>
<text x="3.81" y="14.478" size="1.778" layer="95">(Black)</text>
<text x="3.302" y="-3.048" size="1.778" layer="95">(Green)</text>
</symbol>
<symbol name="AVRISP">
<wire x1="-6.35" y1="-5.08" x2="8.89" y2="-5.08" width="0.4064" layer="94"/>
<wire x1="8.89" y1="-5.08" x2="8.89" y2="5.08" width="0.4064" layer="94"/>
<wire x1="8.89" y1="5.08" x2="-6.35" y2="5.08" width="0.4064" layer="94"/>
<wire x1="-6.35" y1="5.08" x2="-6.35" y2="-5.08" width="0.4064" layer="94"/>
<text x="-6.35" y="5.715" size="1.778" layer="95">&gt;NAME</text>
<text x="-6.35" y="-7.62" size="1.778" layer="96">&gt;VALUE</text>
<text x="-5.08" y="3.175" size="1.27" layer="95">MISO</text>
<text x="-5.08" y="0.635" size="1.27" layer="95">SCK</text>
<text x="-5.08" y="-1.905" size="1.27" layer="95">RST</text>
<text x="7.62" y="3.175" size="1.27" layer="95" rot="MR0">VCC</text>
<text x="7.62" y="0.635" size="1.27" layer="95" rot="MR0">MOSI</text>
<text x="7.62" y="-1.905" size="1.27" layer="95" rot="MR0">GND</text>
<pin name="MISO" x="-2.54" y="2.54" visible="off" length="short" direction="pas" function="dot"/>
<pin name="VCC" x="5.08" y="2.54" visible="off" length="short" direction="pas" function="dot" rot="R180"/>
<pin name="SCK" x="-2.54" y="0" visible="off" length="short" direction="pas" function="dot"/>
<pin name="MOSI" x="5.08" y="0" visible="off" length="short" direction="pas" function="dot" rot="R180"/>
<pin name="RST" x="-2.54" y="-2.54" visible="off" length="short" direction="pas" function="dot"/>
<pin name="GND" x="5.08" y="-2.54" visible="off" length="short" direction="pas" function="dot" rot="R180"/>
</symbol>
<symbol name="TS2">
<wire x1="0" y1="1.905" x2="0" y2="2.54" width="0.254" layer="94"/>
<wire x1="-4.445" y1="1.905" x2="-3.175" y2="1.905" width="0.254" layer="94"/>
<wire x1="-4.445" y1="-1.905" x2="-3.175" y2="-1.905" width="0.254" layer="94"/>
<wire x1="-4.445" y1="1.905" x2="-4.445" y2="0" width="0.254" layer="94"/>
<wire x1="-4.445" y1="0" x2="-4.445" y2="-1.905" width="0.254" layer="94"/>
<wire x1="-2.54" y1="0" x2="-1.905" y2="0" width="0.1524" layer="94"/>
<wire x1="-1.27" y1="0" x2="-0.635" y2="0" width="0.1524" layer="94"/>
<wire x1="-4.445" y1="0" x2="-3.175" y2="0" width="0.1524" layer="94"/>
<wire x1="2.54" y1="2.54" x2="0" y2="2.54" width="0.1524" layer="94"/>
<wire x1="2.54" y1="-2.54" x2="0" y2="-2.54" width="0.1524" layer="94"/>
<wire x1="0" y1="-2.54" x2="-1.27" y2="1.905" width="0.254" layer="94"/>
<circle x="0" y="-2.54" radius="0.127" width="0.4064" layer="94"/>
<circle x="0" y="2.54" radius="0.127" width="0.4064" layer="94"/>
<text x="-6.35" y="-2.54" size="1.778" layer="95" rot="R90">&gt;NAME</text>
<text x="-3.81" y="3.175" size="1.778" layer="96" rot="R90">&gt;VALUE</text>
<pin name="P" x="0" y="-5.08" visible="pad" length="short" direction="pas" swaplevel="2" rot="R90"/>
<pin name="S" x="0" y="5.08" visible="pad" length="short" direction="pas" swaplevel="1" rot="R270"/>
<pin name="S1" x="2.54" y="5.08" visible="pad" length="short" direction="pas" swaplevel="1" rot="R270"/>
<pin name="P1" x="2.54" y="-5.08" visible="pad" length="short" direction="pas" swaplevel="2" rot="R90"/>
</symbol>
<symbol name="LED">
<description>LED</description>
<wire x1="1.27" y1="2.54" x2="0" y2="0" width="0.254" layer="94"/>
<wire x1="0" y1="0" x2="-1.27" y2="2.54" width="0.254" layer="94"/>
<wire x1="1.27" y1="0" x2="0" y2="0" width="0.254" layer="94"/>
<wire x1="0" y1="0" x2="-1.27" y2="0" width="0.254" layer="94"/>
<wire x1="1.27" y1="2.54" x2="0" y2="2.54" width="0.254" layer="94"/>
<wire x1="0" y1="2.54" x2="-1.27" y2="2.54" width="0.254" layer="94"/>
<wire x1="0" y1="2.54" x2="0" y2="0" width="0.1524" layer="94"/>
<wire x1="-2.032" y1="1.778" x2="-3.429" y2="0.381" width="0.1524" layer="94"/>
<wire x1="-1.905" y1="0.635" x2="-3.302" y2="-0.762" width="0.1524" layer="94"/>
<text x="3.556" y="-2.032" size="1.778" layer="95" rot="R90">&gt;NAME</text>
<text x="5.715" y="-2.032" size="1.778" layer="96" rot="R90">&gt;VALUE</text>
<pin name="C" x="0" y="-2.54" visible="off" length="short" direction="pas" rot="R90"/>
<pin name="A" x="0" y="5.08" visible="off" length="short" direction="pas" rot="R270"/>
<polygon width="0.1524" layer="94">
<vertex x="-3.429" y="0.381"/>
<vertex x="-3.048" y="1.27"/>
<vertex x="-2.54" y="0.762"/>
</polygon>
<polygon width="0.1524" layer="94">
<vertex x="-3.302" y="-0.762"/>
<vertex x="-2.921" y="0.127"/>
<vertex x="-2.413" y="-0.381"/>
</polygon>
</symbol>
</symbols>
<devicesets>
<deviceset name="ATTINY44" prefix="IC">
<gates>
<gate name="1" symbol="ATTINY24/44/84" x="0" y="0"/>
</gates>
<devices>
<device name="-SSU" package="SOIC14">
<connects>
<connect gate="1" pin="(PCINT0/AREF/ADC0)PA0" pad="13"/>
<connect gate="1" pin="(PCINT1/AIN0/ADC1)PA1" pad="12"/>
<connect gate="1" pin="(PCINT10/INT0/OC0A/CKOUT)PB2" pad="5"/>
<connect gate="1" pin="(PCINT11/RESET/DW)PB3" pad="4"/>
<connect gate="1" pin="(PCINT2/AIN1/ADC2)PA2" pad="11"/>
<connect gate="1" pin="(PCINT3/T0/ADC3)PA3" pad="10"/>
<connect gate="1" pin="(PCINT4/T1/SCL/USCK/ADC4)PA4" pad="9"/>
<connect gate="1" pin="(PCINT5/OC1B/MISO/DO/ADC5)PA5" pad="8"/>
<connect gate="1" pin="(PCINT6/OC1A/SDA/MOSI/ADC6)PA6" pad="7"/>
<connect gate="1" pin="(PCINT7/ICP/OC0B/ADC7)PA7" pad="6"/>
<connect gate="1" pin="(PCINT8/XTAL1/CLKI)PB0" pad="2"/>
<connect gate="1" pin="(PCINT9/XTAL2)PB1" pad="3"/>
<connect gate="1" pin="GND" pad="14"/>
<connect gate="1" pin="VCC" pad="1"/>
</connects>
<technologies>
<technology name=""/>
</technologies>
</device>
<device name="-PU" package="DIL14">
<connects>
<connect gate="1" pin="(PCINT0/AREF/ADC0)PA0" pad="13"/>
<connect gate="1" pin="(PCINT1/AIN0/ADC1)PA1" pad="12"/>
<connect gate="1" pin="(PCINT10/INT0/OC0A/CKOUT)PB2" pad="5"/>
<connect gate="1" pin="(PCINT11/RESET/DW)PB3" pad="4"/>
<connect gate="1" pin="(PCINT2/AIN1/ADC2)PA2" pad="11"/>
<connect gate="1" pin="(PCINT3/T0/ADC3)PA3" pad="10"/>
<connect gate="1" pin="(PCINT4/T1/SCL/USCK/ADC4)PA4" pad="9"/>
<connect gate="1" pin="(PCINT5/OC1B/MISO/DO/ADC5)PA5" pad="8"/>
<connect gate="1" pin="(PCINT6/OC1A/SDA/MOSI/ADC6)PA6" pad="7"/>
<connect gate="1" pin="(PCINT7/ICP/OC0B/ADC7)PA7" pad="6"/>
<connect gate="1" pin="(PCINT8/XTAL1/CLKI)PB0" pad="2"/>
<connect gate="1" pin="(PCINT9/XTAL2)PB1" pad="3"/>
<connect gate="1" pin="GND" pad="14"/>
<connect gate="1" pin="VCC" pad="1"/>
</connects>
<technologies>
<technology name=""/>
</technologies>
</device>
<device name="-MU" package="QFN/MLF20">
<connects>
<connect gate="1" pin="(PCINT0/AREF/ADC0)PA0" pad="5"/>
<connect gate="1" pin="(PCINT1/AIN0/ADC1)PA1" pad="4"/>
<connect gate="1" pin="(PCINT10/INT0/OC0A/CKOUT)PB2" pad="14"/>
<connect gate="1" pin="(PCINT11/RESET/DW)PB3" pad="13"/>
<connect gate="1" pin="(PCINT2/AIN1/ADC2)PA2" pad="3"/>
<connect gate="1" pin="(PCINT3/T0/ADC3)PA3" pad="2"/>
<connect gate="1" pin="(PCINT4/T1/SCL/USCK/ADC4)PA4" pad="1"/>
<connect gate="1" pin="(PCINT5/OC1B/MISO/DO/ADC5)PA5" pad="20"/>
<connect gate="1" pin="(PCINT6/OC1A/SDA/MOSI/ADC6)PA6" pad="16"/>
<connect gate="1" pin="(PCINT7/ICP/OC0B/ADC7)PA7" pad="15"/>
<connect gate="1" pin="(PCINT8/XTAL1/CLKI)PB0" pad="11"/>
<connect gate="1" pin="(PCINT9/XTAL2)PB1" pad="12"/>
<connect gate="1" pin="GND" pad="8"/>
<connect gate="1" pin="VCC" pad="9"/>
</connects>
<technologies>
<technology name=""/>
</technologies>
</device>
</devices>
</deviceset>
<deviceset name="FTDI-SMD-HEADER">
<gates>
<gate name="G$1" symbol="FTDI" x="-7.62" y="-5.08"/>
</gates>
<devices>
<device name="" package="1X06SMD">
<connects>
<connect gate="G$1" pin="CTS" pad="2"/>
<connect gate="G$1" pin="GND" pad="1"/>
<connect gate="G$1" pin="RTS" pad="6"/>
<connect gate="G$1" pin="RXD" pad="5"/>
<connect gate="G$1" pin="TXD" pad="4"/>
<connect gate="G$1" pin="VCC" pad="3"/>
</connects>
<technologies>
<technology name=""/>
</technologies>
</device>
</devices>
</deviceset>
<deviceset name="AVRISP">
<gates>
<gate name="G$1" symbol="AVRISP" x="0" y="0"/>
</gates>
<devices>
<device name="SMD" package="2X03SMD">
<connects>
<connect gate="G$1" pin="GND" pad="6"/>
<connect gate="G$1" pin="MISO" pad="1"/>
<connect gate="G$1" pin="MOSI" pad="4"/>
<connect gate="G$1" pin="RST" pad="5"/>
<connect gate="G$1" pin="SCK" pad="3"/>
<connect gate="G$1" pin="VCC" pad="2"/>
</connects>
<technologies>
<technology name=""/>
</technologies>
</device>
<device name="" package="2X03">
<connects>
<connect gate="G$1" pin="GND" pad="6"/>
<connect gate="G$1" pin="MISO" pad="1"/>
<connect gate="G$1" pin="MOSI" pad="4"/>
<connect gate="G$1" pin="RST" pad="5"/>
<connect gate="G$1" pin="SCK" pad="3"/>
<connect gate="G$1" pin="VCC" pad="2"/>
</connects>
<technologies>
<technology name=""/>
</technologies>
</device>
</devices>
</deviceset>
<deviceset name="6MM_SWITCH" prefix="S" uservalue="yes">
<description>&lt;b&gt;OMRON SWITCH&lt;/b&gt;</description>
<gates>
<gate name="2" symbol="TS2" x="0" y="0"/>
</gates>
<devices>
<device name="6MM_SWITCH" package="6MM_SWITCH">
<connects>
<connect gate="2" pin="P" pad="1"/>
<connect gate="2" pin="P1" pad="2"/>
<connect gate="2" pin="S" pad="3"/>
<connect gate="2" pin="S1" pad="4"/>
</connects>
<technologies>
<technology name=""/>
</technologies>
</device>
</devices>
</deviceset>
<deviceset name="LED">
<description>LED</description>
<gates>
<gate name="G$1" symbol="LED" x="0" y="0"/>
</gates>
<devices>
<device name="" package="LED1206">
<connects>
<connect gate="G$1" pin="A" pad="1"/>
<connect gate="G$1" pin="C" pad="2"/>
</connects>
<technologies>
<technology name=""/>
</technologies>
</device>
<device name="FAB1206" package="LED1206FAB">
<connects>
<connect gate="G$1" pin="A" pad="1"/>
<connect gate="G$1" pin="C" pad="2"/>
</connects>
<technologies>
<technology name=""/>
</technologies>
</device>
<device name="5MM" package="5MM">
<connects>
<connect gate="G$1" pin="A" pad="IN"/>
<connect gate="G$1" pin="C" pad="OUT"/>
</connects>
<technologies>
<technology name=""/>
</technologies>
</device>
</devices>
</deviceset>
</devicesets>
</library>
<library name="passives">
<packages>
<package name="1206">
<wire x1="-0.965" y1="0.787" x2="0.965" y2="0.787" width="0.1016" layer="51"/>
<wire x1="-0.965" y1="-0.787" x2="0.965" y2="-0.787" width="0.1016" layer="51"/>
<smd name="1" x="-1.4" y="0" dx="1.6" dy="1.8" layer="1"/>
<smd name="2" x="1.4" y="0" dx="1.6" dy="1.8" layer="1"/>
<text x="-1.27" y="1.143" size="1.016" layer="25">&gt;NAME</text>
<text x="-1.397" y="-2.794" size="1.016" layer="27">&gt;VALUE</text>
<rectangle x1="-1.7018" y1="-0.8509" x2="-0.9517" y2="0.8491" layer="51"/>
<rectangle x1="0.9517" y1="-0.8491" x2="1.7018" y2="0.8509" layer="51"/>
<rectangle x1="-0.1999" y1="-0.4001" x2="0.1999" y2="0.4001" layer="35"/>
</package>
<package name="R2010">
<description>&lt;b&gt;RESISTOR&lt;/b&gt;&lt;p&gt;
chip</description>
<wire x1="-1.662" y1="1.245" x2="1.662" y2="1.245" width="0.1524" layer="51"/>
<wire x1="-1.637" y1="-1.245" x2="1.687" y2="-1.245" width="0.1524" layer="51"/>
<wire x1="-3.473" y1="1.483" x2="3.473" y2="1.483" width="0.0508" layer="39"/>
<wire x1="3.473" y1="1.483" x2="3.473" y2="-1.483" width="0.0508" layer="39"/>
<wire x1="3.473" y1="-1.483" x2="-3.473" y2="-1.483" width="0.0508" layer="39"/>
<wire x1="-3.473" y1="-1.483" x2="-3.473" y2="1.483" width="0.0508" layer="39"/>
<wire x1="-1.027" y1="1.245" x2="1.027" y2="1.245" width="0.1524" layer="21"/>
<wire x1="-1.002" y1="-1.245" x2="1.016" y2="-1.245" width="0.1524" layer="21"/>
<smd name="1" x="-2.2" y="0" dx="1.8" dy="2.7" layer="1"/>
<smd name="2" x="2.2" y="0" dx="1.8" dy="2.7" layer="1"/>
<text x="-2.54" y="1.5875" size="1.016" layer="25">&gt;NAME</text>
<text x="-2.54" y="-3.302" size="1.016" layer="27">&gt;VALUE</text>
<rectangle x1="-2.4892" y1="-1.3208" x2="-1.6393" y2="1.3292" layer="51"/>
<rectangle x1="1.651" y1="-1.3208" x2="2.5009" y2="1.3292" layer="51"/>
</package>
<package name="0805">
<smd name="1" x="-0.95" y="0" dx="0.7" dy="1.2" layer="1"/>
<smd name="2" x="0.95" y="0" dx="0.7" dy="1.2" layer="1"/>
<text x="-0.762" y="0.8255" size="1.016" layer="25">&gt;NAME</text>
<text x="-1.016" y="-2.032" size="1.016" layer="27">&gt;VALUE</text>
</package>
<package name="0603-RES">
<wire x1="-1.473" y1="0.983" x2="1.473" y2="0.983" width="0.0508" layer="39"/>
<wire x1="1.473" y1="0.983" x2="1.473" y2="-0.983" width="0.0508" layer="39"/>
<wire x1="1.473" y1="-0.983" x2="-1.473" y2="-0.983" width="0.0508" layer="39"/>
<wire x1="-1.473" y1="-0.983" x2="-1.473" y2="0.983" width="0.0508" layer="39"/>
<wire x1="-0.356" y1="0.432" x2="0.356" y2="0.432" width="0.1016" layer="51"/>
<wire x1="-0.356" y1="-0.419" x2="0.356" y2="-0.419" width="0.1016" layer="51"/>
<smd name="1" x="-0.85" y="0" dx="1.1" dy="1" layer="1"/>
<smd name="2" x="0.85" y="0" dx="1.1" dy="1" layer="1"/>
<text x="-0.889" y="1.397" size="1.016" layer="25">&gt;NAME</text>
<text x="-1.016" y="-2.413" size="1.016" layer="27" ratio="10">&gt;VALUE</text>
<rectangle x1="-0.8382" y1="-0.4699" x2="-0.3381" y2="0.4801" layer="51"/>
<rectangle x1="0.3302" y1="-0.4699" x2="0.8303" y2="0.4801" layer="51"/>
<rectangle x1="-0.1999" y1="-0.3" x2="0.1999" y2="0.3" layer="35"/>
<rectangle x1="-0.2286" y1="-0.381" x2="0.2286" y2="0.381" layer="21"/>
</package>
<package name="0402-RES">
<description>&lt;b&gt;CAPACITOR&lt;/b&gt;&lt;p&gt;
chip</description>
<wire x1="-0.245" y1="0.224" x2="0.245" y2="0.224" width="0.1524" layer="51"/>
<wire x1="0.245" y1="-0.224" x2="-0.245" y2="-0.224" width="0.1524" layer="51"/>
<wire x1="-1.473" y1="0.483" x2="1.473" y2="0.483" width="0.0508" layer="39"/>
<wire x1="1.473" y1="0.483" x2="1.473" y2="-0.483" width="0.0508" layer="39"/>
<wire x1="1.473" y1="-0.483" x2="-1.473" y2="-0.483" width="0.0508" layer="39"/>
<wire x1="-1.473" y1="-0.483" x2="-1.473" y2="0.483" width="0.0508" layer="39"/>
<smd name="1" x="-0.65" y="0" dx="0.7" dy="0.9" layer="1"/>
<smd name="2" x="0.65" y="0" dx="0.7" dy="0.9" layer="1"/>
<text x="-0.889" y="0.6985" size="1.016" layer="25">&gt;NAME</text>
<text x="-1.0795" y="-1.778" size="1.016" layer="27">&gt;VALUE</text>
<rectangle x1="-0.554" y1="-0.3048" x2="-0.254" y2="0.2951" layer="51"/>
<rectangle x1="0.2588" y1="-0.3048" x2="0.5588" y2="0.2951" layer="51"/>
<rectangle x1="-0.1999" y1="-0.3" x2="0.1999" y2="0.3" layer="35"/>
<rectangle x1="-0.2032" y1="-0.3556" x2="0.2032" y2="0.3556" layer="21"/>
</package>
<package name="R2512">
<wire x1="-2.362" y1="1.473" x2="2.387" y2="1.473" width="0.1524" layer="51"/>
<wire x1="-2.362" y1="-1.473" x2="2.387" y2="-1.473" width="0.1524" layer="51"/>
<smd name="1" x="-2.8" y="0" dx="1.8" dy="3.2" layer="1"/>
<smd name="2" x="2.8" y="0" dx="1.8" dy="3.2" layer="1"/>
<text x="-2.54" y="1.905" size="1.016" layer="25">&gt;NAME</text>
<text x="-2.54" y="-3.175" size="1.016" layer="27">&gt;VALUE</text>
<rectangle x1="-3.2004" y1="-1.5494" x2="-2.3505" y2="1.5507" layer="51"/>
<rectangle x1="2.3622" y1="-1.5494" x2="3.2121" y2="1.5507" layer="51"/>
</package>
<package name="TO220ACS">
<description>&lt;B&gt;DIODE&lt;/B&gt;&lt;p&gt;
2-lead molded, vertical</description>
<wire x1="5.08" y1="-1.143" x2="4.953" y2="-4.064" width="0.1524" layer="21"/>
<wire x1="4.699" y1="-4.318" x2="4.953" y2="-4.064" width="0.1524" layer="21"/>
<wire x1="4.699" y1="-4.318" x2="-4.699" y2="-4.318" width="0.1524" layer="21"/>
<wire x1="-4.953" y1="-4.064" x2="-4.699" y2="-4.318" width="0.1524" layer="21"/>
<wire x1="-4.953" y1="-4.064" x2="-5.08" y2="-1.143" width="0.1524" layer="21"/>
<circle x="-4.4958" y="-3.7084" radius="0.254" width="0" layer="21"/>
<pad name="C" x="-2.54" y="-2.54" drill="1.016" shape="long" rot="R90"/>
<pad name="A" x="2.54" y="-2.54" drill="1.016" shape="long" rot="R90"/>
<text x="-5.08" y="-6.0452" size="1.016" layer="25" ratio="10">&gt;NAME</text>
<text x="-5.08" y="-7.62" size="1.016" layer="27" ratio="10">&gt;VALUE</text>
<rectangle x1="-5.334" y1="-0.762" x2="5.334" y2="0" layer="21"/>
<rectangle x1="-5.334" y1="-1.27" x2="-3.429" y2="-0.762" layer="21"/>
<rectangle x1="-3.429" y1="-1.27" x2="-1.651" y2="-0.762" layer="51"/>
<rectangle x1="3.429" y1="-1.27" x2="5.334" y2="-0.762" layer="21"/>
<rectangle x1="1.651" y1="-1.27" x2="3.429" y2="-0.762" layer="51"/>
<rectangle x1="-1.651" y1="-1.27" x2="1.651" y2="-0.762" layer="21"/>
</package>
<package name="0603-CAP">
<wire x1="-0.356" y1="0.332" x2="0.356" y2="0.332" width="0.1016" layer="51"/>
<wire x1="-0.356" y1="-0.319" x2="0.356" y2="-0.319" width="0.1016" layer="51"/>
<smd name="1" x="-0.8" y="0" dx="0.96" dy="0.8" layer="1"/>
<smd name="2" x="0.8" y="0" dx="0.96" dy="0.8" layer="1"/>
<text x="-0.889" y="1.397" size="1.016" layer="25">&gt;NAME</text>
<text x="-1.016" y="-2.413" size="1.016" layer="27">&gt;VALUE</text>
<rectangle x1="-0.8382" y1="-0.4" x2="-0.3381" y2="0.4" layer="51"/>
<rectangle x1="0.3302" y1="-0.4" x2="0.8303" y2="0.4" layer="51"/>
<rectangle x1="-0.1999" y1="-0.3" x2="0.1999" y2="0.3" layer="35"/>
</package>
<package name="0402-CAP">
<description>&lt;b&gt;CAPACITOR&lt;/b&gt;&lt;p&gt;
chip</description>
<wire x1="-0.245" y1="0.224" x2="0.245" y2="0.224" width="0.1524" layer="51"/>
<wire x1="0.245" y1="-0.224" x2="-0.245" y2="-0.224" width="0.1524" layer="51"/>
<wire x1="-1.473" y1="0.483" x2="1.473" y2="0.483" width="0.0508" layer="39"/>
<wire x1="1.473" y1="0.483" x2="1.473" y2="-0.483" width="0.0508" layer="39"/>
<wire x1="1.473" y1="-0.483" x2="-1.473" y2="-0.483" width="0.0508" layer="39"/>
<wire x1="-1.473" y1="-0.483" x2="-1.473" y2="0.483" width="0.0508" layer="39"/>
<wire x1="0" y1="0.0305" x2="0" y2="-0.0305" width="0.4064" layer="21"/>
<smd name="1" x="-0.65" y="0" dx="0.7" dy="0.9" layer="1"/>
<smd name="2" x="0.65" y="0" dx="0.7" dy="0.9" layer="1"/>
<text x="-0.889" y="0.6985" size="1.016" layer="25">&gt;NAME</text>
<text x="-1.0795" y="-2.413" size="1.016" layer="27">&gt;VALUE</text>
<rectangle x1="-0.554" y1="-0.3048" x2="-0.254" y2="0.2951" layer="51"/>
<rectangle x1="0.2588" y1="-0.3048" x2="0.5588" y2="0.2951" layer="51"/>
<rectangle x1="-0.1999" y1="-0.3" x2="0.1999" y2="0.3" layer="35"/>
</package>
<package name="1210">
<wire x1="-1.6" y1="1.3" x2="1.6" y2="1.3" width="0.127" layer="51"/>
<wire x1="1.6" y1="1.3" x2="1.6" y2="-1.3" width="0.127" layer="51"/>
<wire x1="1.6" y1="-1.3" x2="-1.6" y2="-1.3" width="0.127" layer="51"/>
<wire x1="-1.6" y1="-1.3" x2="-1.6" y2="1.3" width="0.127" layer="51"/>
<wire x1="-1.6" y1="1.3" x2="1.6" y2="1.3" width="0.2032" layer="21"/>
<wire x1="-1.6" y1="-1.3" x2="1.6" y2="-1.3" width="0.2032" layer="21"/>
<smd name="1" x="-1.6" y="0" dx="1.2" dy="2" layer="1"/>
<smd name="2" x="1.6" y="0" dx="1.2" dy="2" layer="1"/>
<text x="-2.07" y="1.77" size="1.016" layer="25">&gt;NAME</text>
<text x="-2.17" y="-3.24" size="1.016" layer="27">&gt;VALUE</text>
</package>
<package name="RES_EFOBM">
<smd name="1" x="-1.35" y="0" dx="3.9" dy="0.8" layer="1" rot="R90"/>
<smd name="2" x="0" y="0" dx="3.9" dy="0.8" layer="1" rot="R270"/>
<smd name="3" x="1.35" y="0" dx="3.9" dy="0.8" layer="1" rot="R270"/>
</package>
<package name="RES_PRQC">
<smd name="1" x="-0.95" y="0" dx="1.5" dy="0.6" layer="1" rot="R90"/>
<smd name="2" x="0" y="0" dx="1.5" dy="0.4" layer="1" rot="R270"/>
<smd name="3" x="0.95" y="0" dx="1.5" dy="0.6" layer="1" rot="R270"/>
<wire x1="-1.6" y1="0.65" x2="1.6" y2="0.65" width="0.127" layer="51"/>
<wire x1="1.6" y1="0.65" x2="1.6" y2="-0.65" width="0.127" layer="51"/>
<wire x1="1.6" y1="-0.65" x2="-1.6" y2="-0.65" width="0.127" layer="51"/>
<wire x1="-1.6" y1="-0.65" x2="-1.6" y2="0.65" width="0.127" layer="51"/>
</package>
</packages>
<symbols>
<symbol name="RESISTOR">
<wire x1="-2.54" y1="0" x2="-2.159" y2="1.016" width="0.1524" layer="94"/>
<wire x1="-2.159" y1="1.016" x2="-1.524" y2="-1.016" width="0.1524" layer="94"/>
<wire x1="-1.524" y1="-1.016" x2="-0.889" y2="1.016" width="0.1524" layer="94"/>
<wire x1="-0.889" y1="1.016" x2="-0.254" y2="-1.016" width="0.1524" layer="94"/>
<wire x1="-0.254" y1="-1.016" x2="0.381" y2="1.016" width="0.1524" layer="94"/>
<wire x1="0.381" y1="1.016" x2="1.016" y2="-1.016" width="0.1524" layer="94"/>
<wire x1="1.016" y1="-1.016" x2="1.651" y2="1.016" width="0.1524" layer="94"/>
<wire x1="1.651" y1="1.016" x2="2.286" y2="-1.016" width="0.1524" layer="94"/>
<wire x1="2.286" y1="-1.016" x2="2.54" y2="0" width="0.1524" layer="94"/>
<text x="-3.81" y="1.4986" size="1.778" layer="95">&gt;NAME</text>
<text x="-3.81" y="-3.302" size="1.778" layer="96">&gt;VALUE</text>
<pin name="2" x="5.08" y="0" visible="off" length="short" direction="pas" swaplevel="1" rot="R180"/>
<pin name="1" x="-5.08" y="0" visible="off" length="short" direction="pas" swaplevel="1"/>
<text x="-3.81" y="-6.858" size="1.27" layer="97">&gt;PRECISION</text>
<text x="-3.81" y="-5.08" size="1.27" layer="97">&gt;PACKAGE</text>
</symbol>
<symbol name="CAP">
<wire x1="0" y1="2.54" x2="0" y2="2.032" width="0.1524" layer="94"/>
<wire x1="0" y1="0" x2="0" y2="0.508" width="0.1524" layer="94"/>
<text x="1.524" y="2.921" size="1.778" layer="95">&gt;NAME</text>
<text x="1.524" y="-2.159" size="1.778" layer="96">&gt;VALUE</text>
<rectangle x1="-2.032" y1="0.508" x2="2.032" y2="1.016" layer="94"/>
<rectangle x1="-2.032" y1="1.524" x2="2.032" y2="2.032" layer="94"/>
<pin name="1" x="0" y="5.08" visible="off" length="short" direction="pas" swaplevel="1" rot="R270"/>
<pin name="2" x="0" y="-2.54" visible="off" length="short" direction="pas" swaplevel="1" rot="R90"/>
<text x="1.524" y="-4.064" size="1.27" layer="97">&gt;PACKAGE</text>
<text x="1.524" y="-5.842" size="1.27" layer="97">&gt;VOLTAGE</text>
<text x="1.524" y="-7.62" size="1.27" layer="97">&gt;TYPE</text>
</symbol>
<symbol name="CERAMIC_RESONATOR">
<wire x1="-5.08" y1="2.54" x2="5.08" y2="2.54" width="0.254" layer="94"/>
<wire x1="5.08" y1="2.54" x2="5.08" y2="0" width="0.254" layer="94"/>
<wire x1="5.08" y1="0" x2="5.08" y2="-5.08" width="0.254" layer="94"/>
<wire x1="5.08" y1="-5.08" x2="0" y2="-5.08" width="0.254" layer="94"/>
<wire x1="0" y1="-5.08" x2="-5.08" y2="-5.08" width="0.254" layer="94"/>
<wire x1="-5.08" y1="-5.08" x2="-5.08" y2="0" width="0.254" layer="94"/>
<wire x1="-5.08" y1="0" x2="-5.08" y2="2.54" width="0.254" layer="94"/>
<wire x1="-5.08" y1="0" x2="-3.81" y2="0" width="0.1524" layer="94"/>
<wire x1="-3.81" y1="0" x2="-1.27" y2="0" width="0.1524" layer="94"/>
<wire x1="-1.27" y1="0" x2="-1.27" y2="1.27" width="0.1524" layer="94"/>
<wire x1="-1.27" y1="0" x2="-1.27" y2="-1.27" width="0.1524" layer="94"/>
<wire x1="-0.508" y1="1.27" x2="-0.508" y2="-1.27" width="0.1524" layer="94"/>
<wire x1="-0.508" y1="-1.27" x2="0.508" y2="-1.27" width="0.1524" layer="94"/>
<wire x1="0.508" y1="-1.27" x2="0.508" y2="1.27" width="0.1524" layer="94"/>
<wire x1="0.508" y1="1.27" x2="-0.508" y2="1.27" width="0.1524" layer="94"/>
<wire x1="1.27" y1="1.27" x2="1.27" y2="0" width="0.1524" layer="94"/>
<wire x1="1.27" y1="0" x2="1.27" y2="-1.27" width="0.1524" layer="94"/>
<wire x1="1.27" y1="0" x2="3.81" y2="0" width="0.1524" layer="94"/>
<wire x1="3.81" y1="0" x2="5.08" y2="0" width="0.1524" layer="94"/>
<wire x1="0" y1="-5.08" x2="0" y2="-3.302" width="0.1524" layer="94"/>
<wire x1="0" y1="-3.302" x2="-1.778" y2="-3.302" width="0.1524" layer="94"/>
<wire x1="0" y1="-3.302" x2="1.778" y2="-3.302" width="0.1524" layer="94"/>
<wire x1="1.778" y1="-2.286" x2="1.778" y2="-4.318" width="0.1524" layer="94"/>
<wire x1="2.54" y1="-2.286" x2="2.54" y2="-3.302" width="0.1524" layer="94"/>
<wire x1="2.54" y1="-3.302" x2="2.54" y2="-4.318" width="0.1524" layer="94"/>
<wire x1="2.54" y1="-3.302" x2="3.81" y2="-3.302" width="0.1524" layer="94"/>
<wire x1="3.81" y1="-3.302" x2="3.81" y2="0" width="0.1524" layer="94"/>
<wire x1="-1.778" y1="-2.286" x2="-1.778" y2="-4.318" width="0.1524" layer="94"/>
<wire x1="-2.54" y1="-2.286" x2="-2.54" y2="-3.302" width="0.1524" layer="94"/>
<wire x1="-2.54" y1="-3.302" x2="-2.54" y2="-4.318" width="0.1524" layer="94"/>
<wire x1="-2.54" y1="-3.302" x2="-3.81" y2="-3.302" width="0.1524" layer="94"/>
<wire x1="-3.81" y1="-3.302" x2="-3.81" y2="0" width="0.1524" layer="94"/>
<circle x="-3.81" y="0" radius="0.254" width="0" layer="94"/>
<circle x="3.81" y="0" radius="0.254" width="0" layer="94"/>
<circle x="0" y="-3.302" radius="0.254" width="0" layer="94"/>
<text x="-5.08" y="3.81" size="1.778" layer="95">&gt;NAME</text>
<text x="2.54" y="-7.62" size="1.778" layer="96">&gt;VALUE</text>
<pin name="1" x="-7.62" y="0" visible="pad" length="short" direction="pas"/>
<pin name="2" x="0" y="-7.62" visible="pad" length="short" direction="pas" rot="R90"/>
<pin name="3" x="7.62" y="0" visible="pad" length="short" direction="pas" rot="R180"/>
</symbol>
</symbols>
<devicesets>
<deviceset name="RESISTOR" prefix="R" uservalue="yes">
<description>&lt;b&gt;Resistor&lt;/b&gt;
Basic schematic elements and footprints for 0603, 1206, and PTH resistors.</description>
<gates>
<gate name="G$1" symbol="RESISTOR" x="0" y="0"/>
</gates>
<devices>
<device name="1206" package="1206">
<connects>
<connect gate="G$1" pin="1" pad="1"/>
<connect gate="G$1" pin="2" pad="2"/>
</connects>
<technologies>
<technology name="">
<attribute name="PACKAGE" value="1206" constant="no"/>
<attribute name="PRECISION" value="" constant="no"/>
</technology>
</technologies>
</device>
<device name="2010" package="R2010">
<connects>
<connect gate="G$1" pin="1" pad="1"/>
<connect gate="G$1" pin="2" pad="2"/>
</connects>
<technologies>
<technology name="">
<attribute name="PACKAGE" value="2010"/>
<attribute name="PRECISION" value="" constant="no"/>
</technology>
</technologies>
</device>
<device name="0805-RES" package="0805">
<connects>
<connect gate="G$1" pin="1" pad="1"/>
<connect gate="G$1" pin="2" pad="2"/>
</connects>
<technologies>
<technology name="">
<attribute name="PACKAGE" value="0805"/>
<attribute name="PRECISION" value="" constant="no"/>
</technology>
</technologies>
</device>
<device name="0603-RES" package="0603-RES">
<connects>
<connect gate="G$1" pin="1" pad="1"/>
<connect gate="G$1" pin="2" pad="2"/>
</connects>
<technologies>
<technology name="">
<attribute name="PACKAGE" value="0603"/>
<attribute name="PRECISION" value="" constant="no"/>
</technology>
</technologies>
</device>
<device name="0402-RES" package="0402-RES">
<connects>
<connect gate="G$1" pin="1" pad="1"/>
<connect gate="G$1" pin="2" pad="2"/>
</connects>
<technologies>
<technology name="">
<attribute name="PACKAGE" value="0402"/>
<attribute name="PRECISION" value="" constant="no"/>
</technology>
</technologies>
</device>
<device name="2512" package="R2512">
<connects>
<connect gate="G$1" pin="1" pad="1"/>
<connect gate="G$1" pin="2" pad="2"/>
</connects>
<technologies>
<technology name="">
<attribute name="PACKAGE" value="2512"/>
<attribute name="PRECISION" value="" constant="no"/>
</technology>
</technologies>
</device>
<device name="TO220ACS" package="TO220ACS">
<connects>
<connect gate="G$1" pin="1" pad="A"/>
<connect gate="G$1" pin="2" pad="C"/>
</connects>
<technologies>
<technology name=""/>
</technologies>
</device>
</devices>
</deviceset>
<deviceset name="CAP" prefix="C" uservalue="yes">
<description>&lt;b&gt;Capacitor&lt;/b&gt;
Standard 0603 ceramic capacitor, and 0.1" leaded capacitor.</description>
<gates>
<gate name="G$1" symbol="CAP" x="0" y="0"/>
</gates>
<devices>
<device name="0805" package="0805">
<connects>
<connect gate="G$1" pin="1" pad="1"/>
<connect gate="G$1" pin="2" pad="2"/>
</connects>
<technologies>
<technology name="">
<attribute name="PACKAGE" value="0805"/>
<attribute name="TYPE" value="" constant="no"/>
<attribute name="VOLTAGE" value="" constant="no"/>
</technology>
</technologies>
</device>
<device name="0603-CAP" package="0603-CAP">
<connects>
<connect gate="G$1" pin="1" pad="1"/>
<connect gate="G$1" pin="2" pad="2"/>
</connects>
<technologies>
<technology name="">
<attribute name="PACKAGE" value="0603"/>
<attribute name="TYPE" value="" constant="no"/>
<attribute name="VOLTAGE" value="" constant="no"/>
</technology>
</technologies>
</device>
<device name="0402-CAP" package="0402-CAP">
<connects>
<connect gate="G$1" pin="1" pad="1"/>
<connect gate="G$1" pin="2" pad="2"/>
</connects>
<technologies>
<technology name="">
<attribute name="PACKAGE" value="0402"/>
<attribute name="TYPE" value="" constant="no"/>
<attribute name="VOLTAGE" value="" constant="no"/>
</technology>
</technologies>
</device>
<device name="1210" package="1210">
<connects>
<connect gate="G$1" pin="1" pad="1"/>
<connect gate="G$1" pin="2" pad="2"/>
</connects>
<technologies>
<technology name="">
<attribute name="PACKAGE" value="1210" constant="no"/>
<attribute name="TYPE" value="" constant="no"/>
<attribute name="VOLTAGE" value="" constant="no"/>
</technology>
</technologies>
</device>
<device name="1206" package="1206">
<connects>
<connect gate="G$1" pin="1" pad="1"/>
<connect gate="G$1" pin="2" pad="2"/>
</connects>
<technologies>
<technology name="">
<attribute name="PACKAGE" value="1206" constant="no"/>
<attribute name="TYPE" value="" constant="no"/>
<attribute name="VOLTAGE" value="" constant="no"/>
</technology>
</technologies>
</device>
</devices>
</deviceset>
<deviceset name="RESONATOR" prefix="Y">
<gates>
<gate name="G$1" symbol="CERAMIC_RESONATOR" x="0" y="0"/>
</gates>
<devices>
<device name="" package="RES_EFOBM">
<connects>
<connect gate="G$1" pin="1" pad="1"/>
<connect gate="G$1" pin="2" pad="2"/>
<connect gate="G$1" pin="3" pad="3"/>
</connects>
<technologies>
<technology name=""/>
</technologies>
</device>
<device name="PQRC" package="RES_PRQC">
<connects>
<connect gate="G$1" pin="1" pad="1"/>
<connect gate="G$1" pin="2" pad="2"/>
<connect gate="G$1" pin="3" pad="3"/>
</connects>
<technologies>
<technology name=""/>
</technologies>
</device>
</devices>
</deviceset>
</devicesets>
</library>
<library name="supply1" urn="urn:adsk.eagle:library:371">
<description>&lt;b&gt;Supply Symbols&lt;/b&gt;&lt;p&gt;
 GND, VCC, 0V, +5V, -5V, etc.&lt;p&gt;
 Please keep in mind, that these devices are necessary for the
 automatic wiring of the supply signals.&lt;p&gt;
 The pin name defined in the symbol is identical to the net which is to be wired automatically.&lt;p&gt;
 In this library the device names are the same as the pin names of the symbols, therefore the correct signal names appear next to the supply symbols in the schematic.&lt;p&gt;
 &lt;author&gt;Created by librarian@cadsoft.de&lt;/author&gt;</description>
<packages>
</packages>
<symbols>
<symbol name="GND" urn="urn:adsk.eagle:symbol:26925/1" library_version="1">
<wire x1="-1.905" y1="0" x2="1.905" y2="0" width="0.254" layer="94"/>
<text x="-2.54" y="-2.54" size="1.778" layer="96">&gt;VALUE</text>
<pin name="GND" x="0" y="2.54" visible="off" length="short" direction="sup" rot="R270"/>
</symbol>
<symbol name="+3V3" urn="urn:adsk.eagle:symbol:26950/1" library_version="1">
<wire x1="1.27" y1="-1.905" x2="0" y2="0" width="0.254" layer="94"/>
<wire x1="0" y1="0" x2="-1.27" y2="-1.905" width="0.254" layer="94"/>
<text x="-2.54" y="-5.08" size="1.778" layer="96" rot="R90">&gt;VALUE</text>
<pin name="+3V3" x="0" y="-2.54" visible="off" length="short" direction="sup" rot="R90"/>
</symbol>
</symbols>
<devicesets>
<deviceset name="GND" urn="urn:adsk.eagle:component:26954/1" prefix="GND" library_version="1">
<description>&lt;b&gt;SUPPLY SYMBOL&lt;/b&gt;</description>
<gates>
<gate name="1" symbol="GND" x="0" y="0"/>
</gates>
<devices>
<device name="">
<technologies>
<technology name=""/>
</technologies>
</device>
</devices>
</deviceset>
<deviceset name="+3V3" urn="urn:adsk.eagle:component:26981/1" prefix="+3V3" library_version="1">
<description>&lt;b&gt;SUPPLY SYMBOL&lt;/b&gt;</description>
<gates>
<gate name="G$1" symbol="+3V3" x="0" y="0"/>
</gates>
<devices>
<device name="">
<technologies>
<technology name=""/>
</technologies>
</device>
</devices>
</deviceset>
</devicesets>
</library>
</libraries>
<attributes>
</attributes>
<variantdefs>
</variantdefs>
<classes>
<class number="0" name="default" width="0" drill="0">
</class>
</classes>
<parts>
<part name="IC1" library="fab" deviceset="ATTINY44" device="-SSU"/>
<part name="R1" library="passives" deviceset="RESISTOR" device="1206" value="10k"/>
<part name="GND1" library="supply1" library_urn="urn:adsk.eagle:library:371" deviceset="GND" device=""/>
<part name="C1" library="passives" deviceset="CAP" device="1206" value="1uF"/>
<part name="U$2" library="fab" deviceset="FTDI-SMD-HEADER" device=""/>
<part name="Y1" library="passives" deviceset="RESONATOR" device=""/>
<part name="+3V1" library="supply1" library_urn="urn:adsk.eagle:library:371" deviceset="+3V3" device=""/>
<part name="GND2" library="supply1" library_urn="urn:adsk.eagle:library:371" deviceset="GND" device=""/>
<part name="U$1" library="fab" deviceset="AVRISP" device="SMD"/>
<part name="+3V2" library="supply1" library_urn="urn:adsk.eagle:library:371" deviceset="+3V3" device=""/>
<part name="S1" library="fab" deviceset="6MM_SWITCH" device="6MM_SWITCH"/>
<part name="U$3" library="fab" deviceset="LED" device=""/>
<part name="R2" library="passives" deviceset="RESISTOR" device="1206" value="500"/>
<part name="GND3" library="supply1" library_urn="urn:adsk.eagle:library:371" deviceset="GND" device=""/>
<part name="GND4" library="supply1" library_urn="urn:adsk.eagle:library:371" deviceset="GND" device=""/>
</parts>
<sheets>
<sheet>
<plain>
</plain>
<instances>
<instance part="IC1" gate="1" x="27.94" y="45.72"/>
<instance part="R1" gate="G$1" x="25.4" y="71.12"/>
<instance part="GND1" gate="1" x="5.08" y="25.4"/>
<instance part="C1" gate="G$1" x="15.24" y="35.56"/>
<instance part="U$2" gate="G$1" x="93.98" y="30.48"/>
<instance part="Y1" gate="G$1" x="101.6" y="60.96"/>
<instance part="+3V1" gate="G$1" x="5.08" y="48.26"/>
<instance part="GND2" gate="1" x="116.84" y="48.26"/>
<instance part="U$1" gate="G$1" x="99.06" y="76.2"/>
<instance part="+3V2" gate="G$1" x="116.84" y="83.82"/>
<instance part="S1" gate="2" x="73.66" y="81.28"/>
<instance part="U$3" gate="G$1" x="83.82" y="10.16"/>
<instance part="R2" gate="G$1" x="83.82" y="20.32" rot="R90"/>
<instance part="GND3" gate="1" x="83.82" y="2.54"/>
<instance part="GND4" gate="1" x="53.34" y="83.82"/>
</instances>
<busses>
</busses>
<nets>
<net name="GND" class="0">
<segment>
<pinref part="GND1" gate="1" pin="GND"/>
<wire x1="5.08" y1="27.94" x2="5.08" y2="30.48" width="0.1524" layer="91"/>
<pinref part="IC1" gate="1" pin="GND"/>
<wire x1="5.08" y1="30.48" x2="15.24" y2="30.48" width="0.1524" layer="91"/>
<pinref part="C1" gate="G$1" pin="2"/>
<wire x1="15.24" y1="30.48" x2="20.32" y2="30.48" width="0.1524" layer="91"/>
<wire x1="15.24" y1="33.02" x2="15.24" y2="30.48" width="0.1524" layer="91"/>
<junction x="15.24" y="30.48"/>
</segment>
<segment>
<pinref part="U$2" gate="G$1" pin="GND"/>
<wire x1="93.98" y1="43.18" x2="93.98" y2="50.8" width="0.1524" layer="91"/>
<wire x1="93.98" y1="50.8" x2="101.6" y2="50.8" width="0.1524" layer="91"/>
<pinref part="Y1" gate="G$1" pin="2"/>
<wire x1="101.6" y1="50.8" x2="116.84" y2="50.8" width="0.1524" layer="91"/>
<wire x1="101.6" y1="53.34" x2="101.6" y2="50.8" width="0.1524" layer="91"/>
<junction x="101.6" y="50.8"/>
<pinref part="GND2" gate="1" pin="GND"/>
<pinref part="U$1" gate="G$1" pin="GND"/>
<wire x1="104.14" y1="73.66" x2="116.84" y2="73.66" width="0.1524" layer="91"/>
<wire x1="116.84" y1="73.66" x2="116.84" y2="50.8" width="0.1524" layer="91"/>
<junction x="116.84" y="50.8"/>
</segment>
<segment>
<pinref part="GND3" gate="1" pin="GND"/>
<pinref part="U$3" gate="G$1" pin="C"/>
<wire x1="83.82" y1="5.08" x2="83.82" y2="7.62" width="0.1524" layer="91"/>
</segment>
<segment>
<pinref part="S1" gate="2" pin="S"/>
<wire x1="73.66" y1="86.36" x2="73.66" y2="91.44" width="0.1524" layer="91"/>
<wire x1="73.66" y1="91.44" x2="53.34" y2="91.44" width="0.1524" layer="91"/>
<wire x1="53.34" y1="91.44" x2="53.34" y2="86.36" width="0.1524" layer="91"/>
<pinref part="GND4" gate="1" pin="GND"/>
<pinref part="S1" gate="2" pin="S1"/>
<wire x1="76.2" y1="86.36" x2="76.2" y2="91.44" width="0.1524" layer="91"/>
<wire x1="76.2" y1="91.44" x2="73.66" y2="91.44" width="0.1524" layer="91"/>
<junction x="73.66" y="91.44"/>
</segment>
</net>
<net name="N$2" class="0">
<segment>
<pinref part="R1" gate="G$1" pin="2"/>
<wire x1="83.82" y1="71.12" x2="30.48" y2="71.12" width="0.1524" layer="91"/>
<pinref part="U$1" gate="G$1" pin="RST"/>
<wire x1="96.52" y1="73.66" x2="83.82" y2="73.66" width="0.1524" layer="91"/>
<wire x1="83.82" y1="73.66" x2="83.82" y2="71.12" width="0.1524" layer="91"/>
<pinref part="IC1" gate="1" pin="(PCINT11/RESET/DW)PB3"/>
<wire x1="78.74" y1="60.96" x2="83.82" y2="60.96" width="0.1524" layer="91"/>
<wire x1="83.82" y1="60.96" x2="83.82" y2="71.12" width="0.1524" layer="91"/>
<junction x="83.82" y="71.12"/>
</segment>
</net>
<net name="+3V3" class="0">
<segment>
<pinref part="+3V1" gate="G$1" pin="+3V3"/>
<wire x1="5.08" y1="45.72" x2="5.08" y2="43.18" width="0.1524" layer="91"/>
<pinref part="C1" gate="G$1" pin="1"/>
<wire x1="15.24" y1="40.64" x2="15.24" y2="43.18" width="0.1524" layer="91"/>
<pinref part="IC1" gate="1" pin="VCC"/>
<wire x1="15.24" y1="43.18" x2="20.32" y2="43.18" width="0.1524" layer="91"/>
<wire x1="15.24" y1="43.18" x2="15.24" y2="71.12" width="0.1524" layer="91"/>
<junction x="15.24" y="43.18"/>
<pinref part="R1" gate="G$1" pin="1"/>
<wire x1="15.24" y1="71.12" x2="20.32" y2="71.12" width="0.1524" layer="91"/>
<wire x1="5.08" y1="43.18" x2="15.24" y2="43.18" width="0.1524" layer="91"/>
</segment>
<segment>
<pinref part="U$1" gate="G$1" pin="VCC"/>
<wire x1="104.14" y1="78.74" x2="116.84" y2="78.74" width="0.1524" layer="91"/>
<pinref part="+3V2" gate="G$1" pin="+3V3"/>
<wire x1="116.84" y1="81.28" x2="116.84" y2="78.74" width="0.1524" layer="91"/>
<pinref part="U$2" gate="G$1" pin="VCC"/>
<wire x1="93.98" y1="38.1" x2="91.44" y2="38.1" width="0.1524" layer="91"/>
<wire x1="91.44" y1="38.1" x2="91.44" y2="22.86" width="0.1524" layer="91"/>
<wire x1="91.44" y1="22.86" x2="121.92" y2="22.86" width="0.1524" layer="91"/>
<wire x1="121.92" y1="22.86" x2="121.92" y2="78.74" width="0.1524" layer="91"/>
<wire x1="121.92" y1="78.74" x2="116.84" y2="78.74" width="0.1524" layer="91"/>
<junction x="116.84" y="78.74"/>
</segment>
</net>
<net name="N$1" class="0">
<segment>
<pinref part="IC1" gate="1" pin="(PCINT0/AREF/ADC0)PA0"/>
<wire x1="78.74" y1="30.48" x2="86.36" y2="30.48" width="0.1524" layer="91"/>
<wire x1="86.36" y1="30.48" x2="86.36" y2="35.56" width="0.1524" layer="91"/>
<pinref part="U$2" gate="G$1" pin="TXD"/>
<wire x1="86.36" y1="35.56" x2="93.98" y2="35.56" width="0.1524" layer="91"/>
</segment>
</net>
<net name="N$3" class="0">
<segment>
<pinref part="IC1" gate="1" pin="(PCINT1/AIN0/ADC1)PA1"/>
<pinref part="U$2" gate="G$1" pin="RXD"/>
<wire x1="78.74" y1="33.02" x2="93.98" y2="33.02" width="0.1524" layer="91"/>
</segment>
</net>
<net name="N$4" class="0">
<segment>
<pinref part="IC1" gate="1" pin="(PCINT9/XTAL2)PB1"/>
<wire x1="78.74" y1="55.88" x2="93.98" y2="55.88" width="0.1524" layer="91"/>
<wire x1="93.98" y1="55.88" x2="93.98" y2="60.96" width="0.1524" layer="91"/>
<pinref part="Y1" gate="G$1" pin="1"/>
</segment>
</net>
<net name="N$5" class="0">
<segment>
<pinref part="IC1" gate="1" pin="(PCINT8/XTAL1/CLKI)PB0"/>
<wire x1="78.74" y1="53.34" x2="109.22" y2="53.34" width="0.1524" layer="91"/>
<pinref part="Y1" gate="G$1" pin="3"/>
<wire x1="109.22" y1="53.34" x2="109.22" y2="60.96" width="0.1524" layer="91"/>
</segment>
</net>
<net name="N$7" class="0">
<segment>
<pinref part="IC1" gate="1" pin="(PCINT6/OC1A/SDA/MOSI/ADC6)PA6"/>
<wire x1="78.74" y1="45.72" x2="86.36" y2="45.72" width="0.1524" layer="91"/>
<wire x1="86.36" y1="45.72" x2="86.36" y2="68.58" width="0.1524" layer="91"/>
<wire x1="86.36" y1="68.58" x2="109.22" y2="68.58" width="0.1524" layer="91"/>
<wire x1="109.22" y1="68.58" x2="109.22" y2="76.2" width="0.1524" layer="91"/>
<pinref part="U$1" gate="G$1" pin="MOSI"/>
<wire x1="109.22" y1="76.2" x2="104.14" y2="76.2" width="0.1524" layer="91"/>
</segment>
</net>
<net name="N$6" class="0">
<segment>
<pinref part="IC1" gate="1" pin="(PCINT4/T1/SCL/USCK/ADC4)PA4"/>
<wire x1="78.74" y1="40.64" x2="91.44" y2="40.64" width="0.1524" layer="91"/>
<wire x1="91.44" y1="40.64" x2="91.44" y2="76.2" width="0.1524" layer="91"/>
<pinref part="U$1" gate="G$1" pin="SCK"/>
<wire x1="91.44" y1="76.2" x2="96.52" y2="76.2" width="0.1524" layer="91"/>
</segment>
</net>
<net name="N$8" class="0">
<segment>
<pinref part="IC1" gate="1" pin="(PCINT5/OC1B/MISO/DO/ADC5)PA5"/>
<wire x1="78.74" y1="43.18" x2="88.9" y2="43.18" width="0.1524" layer="91"/>
<wire x1="88.9" y1="43.18" x2="88.9" y2="78.74" width="0.1524" layer="91"/>
<pinref part="U$1" gate="G$1" pin="MISO"/>
<wire x1="88.9" y1="78.74" x2="96.52" y2="78.74" width="0.1524" layer="91"/>
</segment>
</net>
<net name="N$9" class="0">
<segment>
<wire x1="83.82" y1="58.42" x2="83.82" y2="25.4" width="0.1524" layer="91"/>
<pinref part="R2" gate="G$1" pin="2"/>
<pinref part="IC1" gate="1" pin="(PCINT10/INT0/OC0A/CKOUT)PB2"/>
<wire x1="83.82" y1="58.42" x2="78.74" y2="58.42" width="0.1524" layer="91"/>
</segment>
</net>
<net name="N$10" class="0">
<segment>
<pinref part="U$3" gate="G$1" pin="A"/>
<pinref part="R2" gate="G$1" pin="1"/>
</segment>
</net>
<net name="N$11" class="0">
<segment>
<pinref part="S1" gate="2" pin="P1"/>
<wire x1="76.2" y1="76.2" x2="81.28" y2="76.2" width="0.1524" layer="91"/>
<pinref part="IC1" gate="1" pin="(PCINT7/ICP/OC0B/ADC7)PA7"/>
<wire x1="78.74" y1="48.26" x2="81.28" y2="48.26" width="0.1524" layer="91"/>
<wire x1="81.28" y1="48.26" x2="81.28" y2="76.2" width="0.1524" layer="91"/>
</segment>
</net>
</nets>
</sheet>
</sheets>
</schematic>
</drawing>
<compatibility>
<note version="8.2" severity="warning">
Since Version 8.2, EAGLE supports online libraries. The ids
of those online libraries will not be understood (or retained)
with this version.
</note>
<note version="8.3" severity="warning">
Since Version 8.3, EAGLE supports URNs for individual library
assets (packages, symbols, and devices). The URNs of those assets
will not be understood (or retained) with this version.
</note>
</compatibility>
</eagle>
