<?xml version="1.0" encoding="utf-8"?>
<!DOCTYPE eagle SYSTEM "eagle.dtd">
<eagle version="9.1.3">
<drawing>
<settings>
<setting alwaysvectorfont="no"/>
<setting verticaltext="up"/>
</settings>
<grid distance="0.1" unitdist="mm" unit="mm" style="lines" multiple="1" display="yes" altdistance="1" altunitdist="mm" altunit="mm"/>
<layers>
<layer number="1" name="Top" color="4" fill="1" visible="yes" active="yes"/>
<layer number="2" name="Route2" color="1" fill="3" visible="no" active="no"/>
<layer number="3" name="Route3" color="4" fill="3" visible="no" active="no"/>
<layer number="4" name="Route4" color="1" fill="4" visible="no" active="no"/>
<layer number="5" name="Route5" color="4" fill="4" visible="no" active="no"/>
<layer number="6" name="Route6" color="1" fill="8" visible="no" active="no"/>
<layer number="7" name="Route7" color="4" fill="8" visible="no" active="no"/>
<layer number="8" name="Route8" color="1" fill="2" visible="no" active="no"/>
<layer number="9" name="Route9" color="4" fill="2" visible="no" active="no"/>
<layer number="10" name="Route10" color="1" fill="7" visible="no" active="no"/>
<layer number="11" name="Route11" color="4" fill="7" visible="no" active="no"/>
<layer number="12" name="Route12" color="1" fill="5" visible="no" active="no"/>
<layer number="13" name="Route13" color="4" fill="5" visible="no" active="no"/>
<layer number="14" name="Route14" color="1" fill="6" visible="no" active="no"/>
<layer number="15" name="Route15" color="4" fill="6" visible="no" active="no"/>
<layer number="16" name="Bottom" color="1" fill="1" visible="no" active="yes"/>
<layer number="17" name="Pads" color="2" fill="1" visible="yes" active="yes"/>
<layer number="18" name="Vias" color="2" fill="1" visible="no" active="yes"/>
<layer number="19" name="Unrouted" color="6" fill="1" visible="no" active="yes"/>
<layer number="20" name="Dimension" color="24" fill="1" visible="no" active="yes"/>
<layer number="21" name="tPlace" color="7" fill="1" visible="no" active="yes"/>
<layer number="22" name="bPlace" color="7" fill="1" visible="no" active="yes"/>
<layer number="23" name="tOrigins" color="15" fill="1" visible="no" active="yes"/>
<layer number="24" name="bOrigins" color="15" fill="1" visible="no" active="yes"/>
<layer number="25" name="tNames" color="7" fill="1" visible="no" active="yes"/>
<layer number="26" name="bNames" color="7" fill="1" visible="no" active="yes"/>
<layer number="27" name="tValues" color="7" fill="1" visible="no" active="yes"/>
<layer number="28" name="bValues" color="7" fill="1" visible="no" active="yes"/>
<layer number="29" name="tStop" color="7" fill="3" visible="no" active="yes"/>
<layer number="30" name="bStop" color="7" fill="6" visible="no" active="yes"/>
<layer number="31" name="tCream" color="7" fill="4" visible="no" active="yes"/>
<layer number="32" name="bCream" color="7" fill="5" visible="no" active="yes"/>
<layer number="33" name="tFinish" color="6" fill="3" visible="no" active="yes"/>
<layer number="34" name="bFinish" color="6" fill="6" visible="no" active="yes"/>
<layer number="35" name="tGlue" color="7" fill="4" visible="no" active="yes"/>
<layer number="36" name="bGlue" color="7" fill="5" visible="no" active="yes"/>
<layer number="37" name="tTest" color="7" fill="1" visible="no" active="yes"/>
<layer number="38" name="bTest" color="7" fill="1" visible="no" active="yes"/>
<layer number="39" name="tKeepout" color="4" fill="11" visible="no" active="yes"/>
<layer number="40" name="bKeepout" color="1" fill="11" visible="no" active="yes"/>
<layer number="41" name="tRestrict" color="4" fill="10" visible="no" active="yes"/>
<layer number="42" name="bRestrict" color="1" fill="10" visible="no" active="yes"/>
<layer number="43" name="vRestrict" color="2" fill="10" visible="no" active="yes"/>
<layer number="44" name="Drills" color="7" fill="1" visible="no" active="yes"/>
<layer number="45" name="Holes" color="7" fill="1" visible="no" active="yes"/>
<layer number="46" name="Milling" color="3" fill="1" visible="no" active="yes"/>
<layer number="47" name="Measures" color="7" fill="1" visible="no" active="yes"/>
<layer number="48" name="Document" color="7" fill="1" visible="no" active="yes"/>
<layer number="49" name="Reference" color="7" fill="1" visible="no" active="yes"/>
<layer number="50" name="dxf" color="7" fill="1" visible="no" active="no"/>
<layer number="51" name="tDocu" color="7" fill="1" visible="no" active="yes"/>
<layer number="52" name="bDocu" color="7" fill="1" visible="no" active="yes"/>
<layer number="53" name="tGND_GNDA" color="7" fill="9" visible="no" active="no"/>
<layer number="54" name="bGND_GNDA" color="1" fill="9" visible="no" active="no"/>
<layer number="56" name="wert" color="7" fill="1" visible="no" active="no"/>
<layer number="57" name="tCAD" color="7" fill="1" visible="no" active="no"/>
<layer number="59" name="tCarbon" color="7" fill="1" visible="no" active="no"/>
<layer number="60" name="bCarbon" color="7" fill="1" visible="no" active="no"/>
<layer number="88" name="SimResults" color="9" fill="1" visible="no" active="no"/>
<layer number="89" name="SimProbes" color="9" fill="1" visible="no" active="no"/>
<layer number="90" name="Modules" color="5" fill="1" visible="no" active="no"/>
<layer number="91" name="Nets" color="2" fill="1" visible="no" active="no"/>
<layer number="92" name="Busses" color="1" fill="1" visible="no" active="no"/>
<layer number="93" name="Pins" color="2" fill="1" visible="no" active="no"/>
<layer number="94" name="Symbols" color="4" fill="1" visible="no" active="no"/>
<layer number="95" name="Names" color="7" fill="1" visible="no" active="no"/>
<layer number="96" name="Values" color="7" fill="1" visible="no" active="no"/>
<layer number="97" name="Info" color="7" fill="1" visible="no" active="no"/>
<layer number="98" name="Guide" color="6" fill="1" visible="no" active="no"/>
<layer number="99" name="SpiceOrder" color="7" fill="1" visible="no" active="no"/>
<layer number="100" name="Muster" color="7" fill="1" visible="no" active="no"/>
<layer number="101" name="Patch_Top" color="12" fill="4" visible="no" active="yes"/>
<layer number="102" name="Vscore" color="7" fill="1" visible="no" active="yes"/>
<layer number="103" name="tMap" color="7" fill="1" visible="no" active="yes"/>
<layer number="104" name="Name" color="7" fill="1" visible="no" active="yes"/>
<layer number="105" name="tPlate" color="7" fill="1" visible="no" active="yes"/>
<layer number="106" name="bPlate" color="7" fill="1" visible="no" active="yes"/>
<layer number="107" name="Crop" color="7" fill="1" visible="no" active="yes"/>
<layer number="108" name="tplace-old" color="10" fill="1" visible="no" active="yes"/>
<layer number="109" name="ref-old" color="11" fill="1" visible="no" active="yes"/>
<layer number="110" name="fp0" color="7" fill="1" visible="no" active="yes"/>
<layer number="111" name="LPC17xx" color="7" fill="1" visible="no" active="yes"/>
<layer number="112" name="tSilk" color="7" fill="1" visible="no" active="yes"/>
<layer number="113" name="IDFDebug" color="7" fill="1" visible="no" active="yes"/>
<layer number="114" name="Badge_Outline" color="7" fill="1" visible="no" active="yes"/>
<layer number="115" name="ReferenceISLANDS" color="7" fill="1" visible="no" active="yes"/>
<layer number="116" name="Patch_BOT" color="9" fill="4" visible="no" active="yes"/>
<layer number="117" name="BACKMAAT1" color="7" fill="1" visible="no" active="yes"/>
<layer number="118" name="Rect_Pads" color="7" fill="1" visible="no" active="yes"/>
<layer number="119" name="KAP_TEKEN" color="7" fill="1" visible="no" active="yes"/>
<layer number="120" name="KAP_MAAT1" color="7" fill="1" visible="no" active="yes"/>
<layer number="121" name="_tsilk" color="7" fill="1" visible="no" active="yes"/>
<layer number="122" name="_bsilk" color="7" fill="1" visible="no" active="yes"/>
<layer number="123" name="tTestmark" color="7" fill="1" visible="no" active="yes"/>
<layer number="124" name="bTestmark" color="7" fill="1" visible="no" active="yes"/>
<layer number="125" name="_tNames" color="7" fill="1" visible="no" active="yes"/>
<layer number="126" name="_bNames" color="7" fill="1" visible="no" active="yes"/>
<layer number="127" name="_tValues" color="7" fill="1" visible="no" active="yes"/>
<layer number="128" name="_bValues" color="7" fill="1" visible="no" active="yes"/>
<layer number="129" name="Mask" color="7" fill="1" visible="no" active="yes"/>
<layer number="130" name="SMDSTROOK" color="7" fill="1" visible="no" active="yes"/>
<layer number="131" name="tAdjust" color="7" fill="1" visible="no" active="yes"/>
<layer number="132" name="bAdjust" color="7" fill="1" visible="no" active="yes"/>
<layer number="133" name="bottom_silk" color="7" fill="1" visible="no" active="yes"/>
<layer number="144" name="Drill_legend" color="7" fill="1" visible="no" active="yes"/>
<layer number="150" name="Notes" color="7" fill="1" visible="no" active="yes"/>
<layer number="151" name="HeatSink" color="7" fill="1" visible="no" active="yes"/>
<layer number="152" name="_bDocu" color="7" fill="1" visible="no" active="yes"/>
<layer number="153" name="FabDoc1" color="7" fill="1" visible="no" active="yes"/>
<layer number="154" name="FabDoc2" color="7" fill="1" visible="no" active="yes"/>
<layer number="155" name="FabDoc3" color="7" fill="1" visible="no" active="yes"/>
<layer number="199" name="Contour" color="7" fill="1" visible="no" active="yes"/>
<layer number="200" name="200bmp" color="1" fill="10" visible="no" active="yes"/>
<layer number="201" name="201bmp" color="2" fill="10" visible="no" active="yes"/>
<layer number="202" name="202bmp" color="3" fill="10" visible="no" active="yes"/>
<layer number="203" name="203bmp" color="4" fill="10" visible="no" active="yes"/>
<layer number="204" name="204bmp" color="5" fill="10" visible="no" active="yes"/>
<layer number="205" name="205bmp" color="6" fill="10" visible="no" active="yes"/>
<layer number="206" name="206bmp" color="7" fill="10" visible="no" active="yes"/>
<layer number="207" name="207bmp" color="8" fill="10" visible="no" active="yes"/>
<layer number="208" name="208bmp" color="9" fill="10" visible="no" active="yes"/>
<layer number="209" name="209bmp" color="7" fill="1" visible="no" active="yes"/>
<layer number="210" name="210bmp" color="7" fill="1" visible="no" active="yes"/>
<layer number="211" name="211bmp" color="7" fill="1" visible="no" active="yes"/>
<layer number="212" name="212bmp" color="7" fill="1" visible="no" active="yes"/>
<layer number="213" name="213bmp" color="7" fill="1" visible="no" active="yes"/>
<layer number="214" name="214bmp" color="7" fill="1" visible="no" active="yes"/>
<layer number="215" name="215bmp" color="7" fill="1" visible="no" active="yes"/>
<layer number="216" name="216bmp" color="7" fill="1" visible="no" active="yes"/>
<layer number="217" name="217bmp" color="18" fill="1" visible="no" active="no"/>
<layer number="218" name="218bmp" color="19" fill="1" visible="no" active="no"/>
<layer number="219" name="219bmp" color="20" fill="1" visible="no" active="no"/>
<layer number="220" name="220bmp" color="21" fill="1" visible="no" active="no"/>
<layer number="221" name="221bmp" color="22" fill="1" visible="no" active="no"/>
<layer number="222" name="222bmp" color="23" fill="1" visible="no" active="no"/>
<layer number="223" name="223bmp" color="24" fill="1" visible="no" active="no"/>
<layer number="224" name="224bmp" color="25" fill="1" visible="no" active="no"/>
<layer number="225" name="225bmp" color="7" fill="1" visible="no" active="yes"/>
<layer number="226" name="226bmp" color="7" fill="1" visible="no" active="yes"/>
<layer number="227" name="227bmp" color="7" fill="1" visible="no" active="yes"/>
<layer number="228" name="228bmp" color="7" fill="1" visible="no" active="yes"/>
<layer number="229" name="229bmp" color="7" fill="1" visible="no" active="yes"/>
<layer number="230" name="230bmp" color="7" fill="1" visible="no" active="yes"/>
<layer number="231" name="231bmp" color="7" fill="1" visible="no" active="yes"/>
<layer number="232" name="Eagle3D_PG2" color="7" fill="1" visible="no" active="yes"/>
<layer number="233" name="Eagle3D_PG3" color="7" fill="1" visible="no" active="yes"/>
<layer number="248" name="Housing" color="7" fill="1" visible="no" active="yes"/>
<layer number="249" name="Edge" color="7" fill="1" visible="no" active="yes"/>
<layer number="250" name="Descript" color="3" fill="1" visible="no" active="no"/>
<layer number="251" name="SMDround" color="12" fill="11" visible="no" active="no"/>
<layer number="254" name="cooling" color="7" fill="1" visible="no" active="yes"/>
<layer number="255" name="routoute" color="7" fill="1" visible="no" active="yes"/>
</layers>
<board>
<plain>
<text x="8.68" y="22.09" size="0.8128" layer="21" font="vector" align="center">PC3</text>
<text x="8.68" y="19.55" size="0.8128" layer="21" font="vector" align="center">PC4</text>
<text x="8.68" y="17.01" size="0.8128" layer="21" font="vector" align="center">PC5</text>
<text x="8.68" y="14.47" size="0.8128" layer="21" font="vector" align="center">PC6</text>
<text x="8.68" y="11.93" size="0.8128" layer="21" font="vector" align="center">PC7</text>
<text x="8.68" y="9.39" size="0.8128" layer="21" font="vector" align="center">PD4</text>
<text x="8.68" y="6.85" size="0.8128" layer="21" font="vector" align="center">PD5</text>
<dimension x1="21.5" y1="-1" x2="50.5" y2="-1" x3="36" y3="-4.73999375" textsize="0.8128" layer="47"/>
<dimension x1="21.5" y1="-1" x2="0" y2="-1" x3="10.75" y3="-4.7" textsize="0.8128" layer="47"/>
<wire x1="0" y1="40" x2="0" y2="1.5" width="0.1524" layer="20"/>
<text x="8.68" y="24.63" size="0.8128" layer="21" font="vector" align="center">PC2</text>
<text x="8.68" y="27.17" size="0.8128" layer="21" font="vector" align="center">PC1</text>
<text x="8.68" y="29.71" size="0.8128" layer="21" font="vector" align="center">PC0</text>
<text x="8.68" y="32.25" size="0.8128" layer="21" font="vector" align="center">PB3</text>
<text x="8.68" y="34.79" size="0.8128" layer="21" font="vector" align="center">PB2</text>
<text x="8.68" y="37.33" size="0.8128" layer="21" font="vector" align="center">PB1</text>
<text x="8.68" y="39.87" size="0.8128" layer="21" font="vector" align="center">PB0</text>
<text x="8.68" y="4.31" size="0.8128" layer="21" font="vector" align="center">PD6</text>
<text x="8.68" y="1.77" size="0.8128" layer="21" font="vector" align="center">PD7</text>
<wire x1="13.5" y1="40" x2="13.5" y2="32.5" width="0.4064" layer="22"/>
<wire x1="13.5" y1="30" x2="13.5" y2="22" width="0.4064" layer="22"/>
<wire x1="13.5" y1="19.5" x2="13.5" y2="2" width="0.4064" layer="22"/>
<wire x1="16" y1="40" x2="16" y2="2" width="0.4064" layer="22"/>
<wire x1="17.5" y1="40" x2="17.5" y2="32.2" width="0.4064" layer="22"/>
<wire x1="17.5" y1="29.9" x2="17.5" y2="22" width="0.4064" layer="22"/>
<wire x1="17.5" y1="19.6" x2="17.5" y2="1.7" width="0.4064" layer="22"/>
<text x="18.5" y="18.5" size="0.8128" layer="22" font="vector" rot="MR0" align="bottom-right">+3V3 0.6A &gt;</text>
<text x="18.5" y="23" size="0.8128" layer="22" font="vector" rot="MR0" align="bottom-right">+5V 1A &gt;</text>
<text x="18.5" y="33.5" size="0.8128" layer="22" font="vector" rot="MR0" align="bottom-right">VCC &gt;</text>
<text x="8.9" y="1.4" size="1.016" layer="22" font="vector" rot="MR90" align="center-left">gitlab.cba.mit.edu/jakeread/atkbreadboardboard</text>
<text x="38" y="8" size="0.8128" layer="22" font="vector" rot="MR0">PB: ANALOGLAND
PB0: ADC/AREF
PB1: ADC
PB2: ADC
PB3: ADC

PC: DIGIBOIS / PWM (TC &amp; AWEX)
PC0: SDA
PC1: SCL
PC2: UART RX
PC3: UART TX
PC4: SPI CS
PC5: SPI MOSI
PC6: SPI MISO / UART RX
PC7: SPI CLK / UART TX

PD: DIGIBOIS / PWM (TC)
PD4: SPI CS
PD5: SPI MOSI
PD6: SPI MISO / UART RX / USBDM
PD7: SPI CLK / UART TX / USBDP</text>
<wire x1="17.5" y1="40" x2="17.5" y2="32.2" width="0.2032" layer="21"/>
<wire x1="17.5" y1="29.9" x2="17.5" y2="22" width="0.2032" layer="21"/>
<wire x1="17.5" y1="19.6" x2="17.5" y2="1.7" width="0.2032" layer="21"/>
<text x="18.3" y="33.5" size="0.8128" layer="21" font="vector" rot="R180" align="bottom-right">VCC</text>
<text x="18.3" y="29.2" size="0.8128" layer="21" font="vector" rot="R180" align="bottom-right">5V</text>
<text x="18.3" y="12.6" size="0.8128" layer="21" font="vector" rot="R180" align="bottom-right">3V3</text>
<dimension x1="-2" y1="38" x2="-2" y2="3.5" x3="-4.5" y3="20.75" textsize="0.8128" layer="47"/>
<dimension x1="0" y1="45" x2="19" y2="45" x3="9.5" y3="49.2" textsize="0.8128" layer="47"/>
<dimension x1="-3" y1="0" x2="-3" y2="27" x3="-10" y3="13.5" textsize="0.8128" layer="47"/>
<wire x1="17.5" y1="1.5" x2="17.5" y2="11.8" width="0.1524" layer="20"/>
<wire x1="17.5" y1="40.3" x2="17.5" y2="36.9" width="0.1524" layer="20"/>
<wire x1="17.5" y1="11.8" x2="17.5" y2="36.9" width="0.1524" layer="20"/>
<wire x1="0" y1="40" x2="0" y2="42.9" width="0.1524" layer="20"/>
<wire x1="0" y1="42.9" x2="17.5" y2="42.9" width="0.1524" layer="20"/>
<wire x1="17.5" y1="42.9" x2="17.5" y2="40.3" width="0.1524" layer="20"/>
<wire x1="17.5" y1="1.5" x2="17.5" y2="-1.7" width="0.1524" layer="20"/>
<wire x1="17.5" y1="-1.7" x2="0" y2="-1.7" width="0.1524" layer="20"/>
<wire x1="0" y1="-1.7" x2="0" y2="1.5" width="0.1524" layer="20"/>
</plain>
<libraries>
<library name="fab">
<packages>
<package name="TO252">
<description>&lt;b&gt;SMALL OUTLINE TRANSISTOR&lt;/b&gt;&lt;p&gt;
TS-003</description>
<wire x1="3.2766" y1="3.8354" x2="3.277" y2="-2.159" width="0.2032" layer="21"/>
<wire x1="3.277" y1="-2.159" x2="-3.277" y2="-2.159" width="0.2032" layer="21"/>
<wire x1="-3.277" y1="-2.159" x2="-3.2766" y2="3.8354" width="0.2032" layer="21"/>
<wire x1="-3.277" y1="3.835" x2="3.2774" y2="3.8346" width="0.2032" layer="51"/>
<wire x1="-3.973" y1="5.983" x2="3.973" y2="5.983" width="0.0508" layer="39"/>
<wire x1="3.973" y1="-5.983" x2="-3.973" y2="-5.983" width="0.0508" layer="39"/>
<wire x1="-3.973" y1="-5.983" x2="-3.973" y2="5.983" width="0.0508" layer="39"/>
<wire x1="3.973" y1="5.983" x2="3.973" y2="-5.983" width="0.0508" layer="39"/>
<wire x1="-2.5654" y1="3.937" x2="-2.5654" y2="4.6482" width="0.2032" layer="51"/>
<wire x1="-2.5654" y1="4.6482" x2="-2.1082" y2="5.1054" width="0.2032" layer="51"/>
<wire x1="-2.1082" y1="5.1054" x2="2.1082" y2="5.1054" width="0.2032" layer="51"/>
<wire x1="2.1082" y1="5.1054" x2="2.5654" y2="4.6482" width="0.2032" layer="51"/>
<wire x1="2.5654" y1="4.6482" x2="2.5654" y2="3.937" width="0.2032" layer="51"/>
<wire x1="2.5654" y1="3.937" x2="-2.5654" y2="3.937" width="0.2032" layer="51"/>
<smd name="3" x="0" y="2.5" dx="5.4" dy="6.2" layer="1"/>
<smd name="1" x="-2.28" y="-4.8" dx="1" dy="1.6" layer="1"/>
<smd name="2" x="2.28" y="-4.8" dx="1" dy="1.6" layer="1"/>
<text x="-3.81" y="-2.54" size="1.27" layer="25" rot="R90">&gt;NAME</text>
<text x="5.08" y="-2.54" size="1.27" layer="27" rot="R90">&gt;VALUE</text>
<rectangle x1="-2.7178" y1="-5.1562" x2="-1.8542" y2="-2.2606" layer="51"/>
<rectangle x1="1.8542" y1="-5.1562" x2="2.7178" y2="-2.2606" layer="51"/>
<rectangle x1="-0.4318" y1="-3.0226" x2="0.4318" y2="-2.2606" layer="21"/>
<polygon width="0.1998" layer="51">
<vertex x="-2.5654" y="3.937"/>
<vertex x="-2.5654" y="4.6482"/>
<vertex x="-2.1082" y="5.1054"/>
<vertex x="2.1082" y="5.1054"/>
<vertex x="2.5654" y="4.6482"/>
<vertex x="2.5654" y="3.937"/>
</polygon>
</package>
<package name="2X02SMD">
<smd name="1" x="-2.54" y="1.27" dx="2.54" dy="1.27" layer="1"/>
<smd name="3" x="-2.54" y="-1.27" dx="2.54" dy="1.27" layer="1"/>
<smd name="2" x="2.92" y="1.27" dx="2.54" dy="1.27" layer="1"/>
<smd name="4" x="2.92" y="-1.27" dx="2.54" dy="1.27" layer="1"/>
<text x="-5.08" y="1.27" size="1.27" layer="27">1</text>
<text x="-3.81" y="2.54" size="1.27" layer="21">&gt;NAME</text>
<text x="-3.81" y="-3.81" size="1.27" layer="21">&gt;VALUE</text>
</package>
<package name="R1206">
<description>&lt;b&gt;RESISTOR&lt;/b&gt;</description>
<wire x1="0.9525" y1="-0.8128" x2="-0.9652" y2="-0.8128" width="0.1524" layer="51"/>
<wire x1="0.9525" y1="0.8128" x2="-0.9652" y2="0.8128" width="0.1524" layer="51"/>
<wire x1="-2.473" y1="0.983" x2="2.473" y2="0.983" width="0.0508" layer="39"/>
<wire x1="2.473" y1="0.983" x2="2.473" y2="-0.983" width="0.0508" layer="39"/>
<wire x1="2.473" y1="-0.983" x2="-2.473" y2="-0.983" width="0.0508" layer="39"/>
<wire x1="-2.473" y1="-0.983" x2="-2.473" y2="0.983" width="0.0508" layer="39"/>
<smd name="2" x="1.422" y="0" dx="1.6" dy="1.803" layer="1"/>
<smd name="1" x="-1.422" y="0" dx="1.6" dy="1.803" layer="1"/>
<text x="-1.27" y="1.27" size="1.27" layer="25">&gt;NAME</text>
<text x="-1.27" y="-2.54" size="1.27" layer="27">&gt;VALUE</text>
<rectangle x1="-1.6891" y1="-0.8763" x2="-0.9525" y2="0.8763" layer="51"/>
<rectangle x1="0.9525" y1="-0.8763" x2="1.6891" y2="0.8763" layer="51"/>
<rectangle x1="-0.3" y1="-0.7" x2="0.3" y2="0.7" layer="35"/>
</package>
</packages>
</library>
<library name="SparkFun-Connectors">
<description>&lt;h3&gt;SparkFun Connectors&lt;/h3&gt;
This library contains electrically-functional connectors. 
&lt;br&gt;
&lt;br&gt;
We've spent an enormous amount of time creating and checking these footprints and parts, but it is &lt;b&gt; the end user's responsibility&lt;/b&gt; to ensure correctness and suitablity for a given componet or application. 
&lt;br&gt;
&lt;br&gt;If you enjoy using this library, please buy one of our products at &lt;a href=" www.sparkfun.com"&gt;SparkFun.com&lt;/a&gt;.
&lt;br&gt;
&lt;br&gt;
&lt;b&gt;Licensing:&lt;/b&gt; Creative Commons ShareAlike 4.0 International - https://creativecommons.org/licenses/by-sa/4.0/ 
&lt;br&gt;
&lt;br&gt;
You are welcome to use this library for commercial purposes. For attribution, we ask that when you begin to sell your device using our footprint, you email us with a link to the product being sold. We want bragging rights that we helped (in a very small part) to create your 8th world wonder. We would like the opportunity to feature your device on our homepage.</description>
<packages>
<package name="1X16_NO_SILK">
<description>&lt;h3&gt;Plated Through Hole -16 Pin No Silk&lt;/h3&gt;
&lt;p&gt;Specifications:
&lt;ul&gt;&lt;li&gt;Pin count:16&lt;/li&gt;
&lt;li&gt;Pin pitch:0.1"&lt;/li&gt;
&lt;/ul&gt;&lt;/p&gt;
&lt;p&gt;Example device(s):
&lt;ul&gt;&lt;li&gt;CONN_16&lt;/li&gt;
&lt;/ul&gt;&lt;/p&gt;</description>
<pad name="1" x="0" y="0" drill="1.143" diameter="1.8796" rot="R90"/>
<pad name="2" x="2.54" y="0" drill="1.143" diameter="1.8796" rot="R90"/>
<pad name="3" x="5.08" y="0" drill="1.143" diameter="1.8796" rot="R90"/>
<pad name="4" x="7.62" y="0" drill="1.143" diameter="1.8796" rot="R90"/>
<pad name="5" x="10.16" y="0" drill="1.143" diameter="1.8796" rot="R90"/>
<pad name="6" x="12.7" y="0" drill="1.143" diameter="1.8796" rot="R90"/>
<pad name="7" x="15.24" y="0" drill="1.143" diameter="1.8796" rot="R90"/>
<pad name="8" x="17.78" y="0" drill="1.143" diameter="1.8796" rot="R90"/>
<pad name="9" x="20.32" y="0" drill="1.143" diameter="1.8796" rot="R90"/>
<pad name="10" x="22.86" y="0" drill="1.143" diameter="1.8796" rot="R90"/>
<pad name="11" x="25.4" y="0" drill="1.143" diameter="1.8796" rot="R90"/>
<pad name="12" x="27.94" y="0" drill="1.143" diameter="1.8796" rot="R90"/>
<pad name="13" x="30.48" y="0" drill="1.143" diameter="1.8796" rot="R90"/>
<pad name="14" x="33.02" y="0" drill="1.143" diameter="1.8796" rot="R90"/>
<pad name="15" x="35.56" y="0" drill="1.143" diameter="1.8796" rot="R90"/>
<pad name="16" x="38.1" y="0" drill="1.143" diameter="1.8796" rot="R90"/>
<rectangle x1="14.986" y1="-0.254" x2="15.494" y2="0.254" layer="51"/>
<rectangle x1="12.446" y1="-0.254" x2="12.954" y2="0.254" layer="51"/>
<rectangle x1="9.906" y1="-0.254" x2="10.414" y2="0.254" layer="51"/>
<rectangle x1="7.366" y1="-0.254" x2="7.874" y2="0.254" layer="51"/>
<rectangle x1="4.826" y1="-0.254" x2="5.334" y2="0.254" layer="51"/>
<rectangle x1="2.286" y1="-0.254" x2="2.794" y2="0.254" layer="51"/>
<rectangle x1="-0.254" y1="-0.254" x2="0.254" y2="0.254" layer="51"/>
<rectangle x1="32.766" y1="-0.254" x2="33.274" y2="0.254" layer="51"/>
<rectangle x1="30.226" y1="-0.254" x2="30.734" y2="0.254" layer="51"/>
<rectangle x1="27.686" y1="-0.254" x2="28.194" y2="0.254" layer="51"/>
<rectangle x1="25.146" y1="-0.254" x2="25.654" y2="0.254" layer="51"/>
<rectangle x1="22.606" y1="-0.254" x2="23.114" y2="0.254" layer="51"/>
<rectangle x1="20.066" y1="-0.254" x2="20.574" y2="0.254" layer="51"/>
<rectangle x1="17.526" y1="-0.254" x2="18.034" y2="0.254" layer="51"/>
<rectangle x1="35.306" y1="-0.254" x2="35.814" y2="0.254" layer="51"/>
<rectangle x1="37.846" y1="-0.254" x2="38.354" y2="0.254" layer="51"/>
<text x="-1.27" y="1.397" size="0.6096" layer="25" font="vector" ratio="20">&gt;NAME</text>
<text x="-1.27" y="-2.032" size="0.6096" layer="27" font="vector" ratio="20">&gt;VALUE</text>
</package>
</packages>
</library>
</libraries>
<attributes>
</attributes>
<variantdefs>
</variantdefs>
<classes>
<class number="0" name="default" width="0" drill="0">
</class>
</classes>
<designrules name="default *">
<description language="de">&lt;b&gt;EAGLE Design Rules&lt;/b&gt;
&lt;p&gt;
Die Standard-Design-Rules sind so gewählt, dass sie für 
die meisten Anwendungen passen. Sollte ihre Platine 
besondere Anforderungen haben, treffen Sie die erforderlichen
Einstellungen hier und speichern die Design Rules unter 
einem neuen Namen ab.</description>
<description language="en">&lt;b&gt;EAGLE Design Rules&lt;/b&gt;
&lt;p&gt;
The default Design Rules have been set to cover
a wide range of applications. Your particular design
may have different requirements, so please make the
necessary adjustments and save your customized
design rules under a new name.</description>
<param name="layerSetup" value="(1*16)"/>
<param name="mtCopper" value="0.035mm 0.035mm 0.035mm 0.035mm 0.035mm 0.035mm 0.035mm 0.035mm 0.035mm 0.035mm 0.035mm 0.035mm 0.035mm 0.035mm 0.035mm 0.035mm"/>
<param name="mtIsolate" value="1.5mm 0.15mm 0.2mm 0.15mm 0.2mm 0.15mm 0.2mm 0.15mm 0.2mm 0.15mm 0.2mm 0.15mm 0.2mm 0.15mm 0.2mm"/>
<param name="mdWireWire" value="20mil"/>
<param name="mdWirePad" value="20mil"/>
<param name="mdWireVia" value="20mil"/>
<param name="mdPadPad" value="20mil"/>
<param name="mdPadVia" value="20mil"/>
<param name="mdViaVia" value="20mil"/>
<param name="mdSmdPad" value="20mil"/>
<param name="mdSmdVia" value="20mil"/>
<param name="mdSmdSmd" value="20mil"/>
<param name="mdViaViaSameLayer" value="6mil"/>
<param name="mnLayersViaInSmd" value="2"/>
<param name="mdCopperDimension" value="20mil"/>
<param name="mdDrill" value="20mil"/>
<param name="mdSmdStop" value="0mil"/>
<param name="msWidth" value="20mil"/>
<param name="msDrill" value="0.35mm"/>
<param name="msMicroVia" value="9.99mm"/>
<param name="msBlindViaRatio" value="0.5"/>
<param name="rvPadTop" value="0.25"/>
<param name="rvPadInner" value="0.25"/>
<param name="rvPadBottom" value="0.25"/>
<param name="rvViaOuter" value="0.25"/>
<param name="rvViaInner" value="0.25"/>
<param name="rvMicroViaOuter" value="0.25"/>
<param name="rvMicroViaInner" value="0.25"/>
<param name="rlMinPadTop" value="10mil"/>
<param name="rlMaxPadTop" value="20mil"/>
<param name="rlMinPadInner" value="10mil"/>
<param name="rlMaxPadInner" value="20mil"/>
<param name="rlMinPadBottom" value="10mil"/>
<param name="rlMaxPadBottom" value="20mil"/>
<param name="rlMinViaOuter" value="8mil"/>
<param name="rlMaxViaOuter" value="20mil"/>
<param name="rlMinViaInner" value="8mil"/>
<param name="rlMaxViaInner" value="20mil"/>
<param name="rlMinMicroViaOuter" value="4mil"/>
<param name="rlMaxMicroViaOuter" value="20mil"/>
<param name="rlMinMicroViaInner" value="4mil"/>
<param name="rlMaxMicroViaInner" value="20mil"/>
<param name="psTop" value="-1"/>
<param name="psBottom" value="-1"/>
<param name="psFirst" value="-1"/>
<param name="psElongationLong" value="100"/>
<param name="psElongationOffset" value="100"/>
<param name="mvStopFrame" value="1"/>
<param name="mvCreamFrame" value="0"/>
<param name="mlMinStopFrame" value="4mil"/>
<param name="mlMaxStopFrame" value="4mil"/>
<param name="mlMinCreamFrame" value="0mil"/>
<param name="mlMaxCreamFrame" value="0mil"/>
<param name="mlViaStopLimit" value="25mil"/>
<param name="srRoundness" value="0"/>
<param name="srMinRoundness" value="0mil"/>
<param name="srMaxRoundness" value="0mil"/>
<param name="slThermalIsolate" value="20mil"/>
<param name="slThermalsForVias" value="0"/>
<param name="dpMaxLengthDifference" value="10mm"/>
<param name="dpGapFactor" value="2.5"/>
<param name="checkAngle" value="0"/>
<param name="checkFont" value="1"/>
<param name="checkRestrict" value="1"/>
<param name="checkStop" value="0"/>
<param name="checkValues" value="0"/>
<param name="checkNames" value="1"/>
<param name="checkWireStubs" value="1"/>
<param name="checkPolygonWidth" value="0"/>
<param name="useDiameter" value="13"/>
<param name="maxErrors" value="50"/>
</designrules>
<autorouter>
<pass name="Default">
<param name="RoutingGrid" value="50mil"/>
<param name="AutoGrid" value="1"/>
<param name="Efforts" value="0"/>
<param name="TopRouterVariant" value="1"/>
<param name="tpViaShape" value="round"/>
<param name="PrefDir.1" value="a"/>
<param name="PrefDir.2" value="0"/>
<param name="PrefDir.3" value="0"/>
<param name="PrefDir.4" value="0"/>
<param name="PrefDir.5" value="0"/>
<param name="PrefDir.6" value="0"/>
<param name="PrefDir.7" value="0"/>
<param name="PrefDir.8" value="0"/>
<param name="PrefDir.9" value="0"/>
<param name="PrefDir.10" value="0"/>
<param name="PrefDir.11" value="0"/>
<param name="PrefDir.12" value="0"/>
<param name="PrefDir.13" value="0"/>
<param name="PrefDir.14" value="0"/>
<param name="PrefDir.15" value="0"/>
<param name="PrefDir.16" value="a"/>
<param name="cfVia" value="8"/>
<param name="cfNonPref" value="5"/>
<param name="cfChangeDir" value="2"/>
<param name="cfOrthStep" value="2"/>
<param name="cfDiagStep" value="3"/>
<param name="cfExtdStep" value="0"/>
<param name="cfBonusStep" value="1"/>
<param name="cfMalusStep" value="1"/>
<param name="cfPadImpact" value="4"/>
<param name="cfSmdImpact" value="4"/>
<param name="cfBusImpact" value="0"/>
<param name="cfHugging" value="3"/>
<param name="cfAvoid" value="4"/>
<param name="cfPolygon" value="10"/>
<param name="cfBase.1" value="0"/>
<param name="cfBase.2" value="1"/>
<param name="cfBase.3" value="1"/>
<param name="cfBase.4" value="1"/>
<param name="cfBase.5" value="1"/>
<param name="cfBase.6" value="1"/>
<param name="cfBase.7" value="1"/>
<param name="cfBase.8" value="1"/>
<param name="cfBase.9" value="1"/>
<param name="cfBase.10" value="1"/>
<param name="cfBase.11" value="1"/>
<param name="cfBase.12" value="1"/>
<param name="cfBase.13" value="1"/>
<param name="cfBase.14" value="1"/>
<param name="cfBase.15" value="1"/>
<param name="cfBase.16" value="0"/>
<param name="mnVias" value="20"/>
<param name="mnSegments" value="9999"/>
<param name="mnExtdSteps" value="9999"/>
<param name="mnRipupLevel" value="10"/>
<param name="mnRipupSteps" value="100"/>
<param name="mnRipupTotal" value="100"/>
</pass>
<pass name="Follow-me" refer="Default" active="yes">
</pass>
<pass name="Busses" refer="Default" active="yes">
<param name="cfNonPref" value="4"/>
<param name="cfBusImpact" value="4"/>
<param name="cfHugging" value="0"/>
<param name="mnVias" value="0"/>
</pass>
<pass name="Route" refer="Default" active="yes">
</pass>
<pass name="Optimize1" refer="Default" active="yes">
<param name="cfVia" value="99"/>
<param name="cfExtdStep" value="10"/>
<param name="cfHugging" value="1"/>
<param name="mnExtdSteps" value="1"/>
<param name="mnRipupLevel" value="0"/>
</pass>
<pass name="Optimize2" refer="Optimize1" active="yes">
<param name="cfNonPref" value="0"/>
<param name="cfChangeDir" value="6"/>
<param name="cfExtdStep" value="0"/>
<param name="cfBonusStep" value="2"/>
<param name="cfMalusStep" value="2"/>
<param name="cfPadImpact" value="2"/>
<param name="cfSmdImpact" value="2"/>
<param name="cfHugging" value="0"/>
</pass>
<pass name="Optimize3" refer="Optimize2" active="yes">
<param name="cfChangeDir" value="8"/>
<param name="cfPadImpact" value="0"/>
<param name="cfSmdImpact" value="0"/>
</pass>
<pass name="Optimize4" refer="Optimize3" active="yes">
<param name="cfChangeDir" value="25"/>
</pass>
</autorouter>
<elements>
<element name="J15" library="SparkFun-Connectors" package="1X16_NO_SILK" value="" x="13.415" y="39.91" rot="R270"/>
<element name="J16" library="SparkFun-Connectors" package="1X16_NO_SILK" value="" x="15.955" y="39.91" rot="R270"/>
<element name="J9" library="SparkFun-Connectors" package="1X16_NO_SILK" value="" x="10.875" y="39.91" rot="R270"/>
<element name="T1" library="fab" package="TO252" value="" x="4.9" y="24.8" rot="R180"/>
<element name="THERMISTOR_HEADERS" library="fab" package="2X02SMD" value="PINHD-2X2-SMD" x="4.6" y="10"/>
<element name="R_F" library="fab" package="R1206" value="75K" x="7.1" y="4.1" rot="R270"/>
</elements>
<signals>
<signal name="GND">
<contactref element="J16" pad="1"/>
<contactref element="J16" pad="2"/>
<contactref element="J16" pad="3"/>
<contactref element="J16" pad="4"/>
<contactref element="J16" pad="5"/>
<contactref element="J16" pad="6"/>
<contactref element="J16" pad="7"/>
<contactref element="J16" pad="8"/>
<contactref element="J16" pad="9"/>
<contactref element="J16" pad="10"/>
<contactref element="J16" pad="11"/>
<contactref element="J16" pad="12"/>
<contactref element="J16" pad="13"/>
<contactref element="J16" pad="14"/>
<contactref element="J16" pad="15"/>
<contactref element="T1" pad="2"/>
<contactref element="THERMISTOR_HEADERS" pad="3"/>
<contactref element="J16" pad="16"/>
<wire x1="2.06" y1="8.73" x2="5.4873" y2="5.3027" width="0.4064" layer="1"/>
<wire x1="15.74986875" y1="1.81" x2="15.955" y2="1.81" width="0.4064" layer="1"/>
<wire x1="5.4873" y1="5.3027" x2="5.4873" y2="1.5834125" width="0.4064" layer="1"/>
<wire x1="5.4873" y1="1.5834125" x2="7.8261125" y2="-0.7554" width="0.4064" layer="1"/>
<wire x1="7.8261125" y1="-0.7554" x2="13.18446875" y2="-0.7554" width="0.4064" layer="1"/>
<wire x1="13.18446875" y1="-0.7554" x2="14.469934375" y2="0.530065625" width="0.4064" layer="1"/>
<wire x1="14.469934375" y1="0.530065625" x2="14.719934375" y2="0.780065625" width="0.4064" layer="1"/>
<wire x1="14.719934375" y1="0.780065625" x2="15.74986875" y2="1.81" width="0.4064" layer="1"/>
<wire x1="2.62" y1="33.98986875" x2="10.19113125" y2="41.561" width="0.4064" layer="1"/>
<wire x1="15.74986875" y1="39.91" x2="15.955" y2="39.91" width="0.4064" layer="1"/>
<wire x1="10.19113125" y1="41.561" x2="14.09886875" y2="41.561" width="0.4064" layer="1"/>
<wire x1="14.09886875" y1="41.561" x2="14.979934375" y2="40.679934375" width="0.4064" layer="1"/>
<wire x1="14.979934375" y1="40.679934375" x2="15.74986875" y2="39.91" width="0.4064" layer="1"/>
<wire x1="2.62" y1="29.6" x2="2.62" y2="33.98986875" width="0.4064" layer="1"/>
<wire x1="15.955" y1="39.91" x2="15.955" y2="1.81" width="0.508" layer="1"/>
<wire x1="15.955" y1="34.83" x2="15.955" y2="37.37" width="0" layer="19" extent="1-1"/>
<wire x1="15.955" y1="32.29" x2="15.955" y2="34.83" width="0" layer="19" extent="1-1"/>
<wire x1="15.955" y1="29.75" x2="15.955" y2="32.29" width="0" layer="19" extent="1-1"/>
<wire x1="15.955" y1="27.21" x2="15.955" y2="29.75" width="0" layer="19" extent="1-1"/>
<wire x1="15.955" y1="24.67" x2="15.955" y2="27.21" width="0" layer="19" extent="1-1"/>
<wire x1="15.955" y1="22.13" x2="15.955" y2="24.67" width="0" layer="19" extent="1-1"/>
<wire x1="15.955" y1="19.59" x2="15.955" y2="22.13" width="0" layer="19" extent="1-1"/>
<wire x1="15.955" y1="17.05" x2="15.955" y2="19.59" width="0" layer="19" extent="1-1"/>
<wire x1="15.955" y1="14.51" x2="15.955" y2="17.05" width="0" layer="19" extent="1-1"/>
<wire x1="15.955" y1="11.97" x2="15.955" y2="14.51" width="0" layer="19" extent="1-1"/>
<wire x1="15.955" y1="9.43" x2="15.955" y2="11.97" width="0" layer="19" extent="1-1"/>
<wire x1="15.955" y1="6.89" x2="15.955" y2="9.43" width="0" layer="19" extent="1-1"/>
<wire x1="15.955" y1="4.35" x2="15.955" y2="6.89" width="0" layer="19" extent="1-1"/>
<wire x1="15.74986875" y1="39.91" x2="15.955" y2="37.37" width="0" layer="19" extent="1-1"/>
</signal>
<signal name="VCC">
<contactref element="J15" pad="4"/>
<contactref element="J15" pad="3"/>
<contactref element="J15" pad="2"/>
<contactref element="J15" pad="1"/>
<wire x1="13.415" y1="39.91" x2="13.415" y2="32.29" width="0.508" layer="1"/>
<wire x1="13.415" y1="34.83" x2="13.415" y2="37.37" width="0" layer="19" extent="1-1"/>
<wire x1="13.415" y1="39.91" x2="13.415" y2="37.37" width="0" layer="19" extent="1-1"/>
</signal>
<signal name="PB2/DAC0">
<contactref element="J9" pad="3"/>
</signal>
<signal name="PB3/DAC1">
<contactref element="J9" pad="4"/>
</signal>
<signal name="PB1">
<contactref element="J9" pad="2"/>
</signal>
<signal name="PB0/AREF">
<contactref element="J9" pad="1"/>
<contactref element="R_F" pad="1"/>
<contactref element="THERMISTOR_HEADERS" pad="4"/>
<wire x1="7.1" y1="5.522" x2="7.52" y2="5.942" width="0.4064" layer="1"/>
<wire x1="7.52" y1="5.942" x2="7.52" y2="8.73" width="0.4064" layer="1"/>
<wire x1="5.6554125" y1="9.8238" x2="5.2388" y2="10.2404125" width="0.4064" layer="1"/>
<wire x1="1.4888" y1="18.2054125" x2="1.4888" y2="25.8945875" width="0.4064" layer="1"/>
<wire x1="7.52" y1="8.73" x2="6.4262" y2="9.8238" width="0.4064" layer="1"/>
<wire x1="6.4262" y1="9.8238" x2="5.6554125" y2="9.8238" width="0.4064" layer="1"/>
<wire x1="5.2388" y1="10.2404125" x2="5.2388" y2="14.4554125" width="0.4064" layer="1"/>
<wire x1="5.2388" y1="14.4554125" x2="1.4888" y2="18.2054125" width="0.4064" layer="1"/>
<wire x1="1.4888" y1="25.8945875" x2="5.0688" y2="29.4745875" width="0.4064" layer="1"/>
<wire x1="5.0688" y1="29.4745875" x2="5.0688" y2="34.1038" width="0.4064" layer="1"/>
<wire x1="5.0688" y1="34.1038" x2="10.875" y2="39.91" width="0.4064" layer="1"/>
</signal>
<signal name="PC0">
<contactref element="J9" pad="5"/>
<contactref element="T1" pad="1"/>
<wire x1="7.18" y1="29.6" x2="7.33" y2="29.75" width="0.4064" layer="1"/>
<wire x1="7.33" y1="29.75" x2="10.875" y2="29.75" width="0.4064" layer="1"/>
</signal>
<signal name="PC1">
<contactref element="J9" pad="6"/>
</signal>
<signal name="PC2">
<contactref element="J9" pad="7"/>
</signal>
<signal name="PC3/BLANKET">
<contactref element="J9" pad="8"/>
<contactref element="T1" pad="3"/>
<wire x1="4.9" y1="22.3" x2="10.705" y2="22.3" width="0.4064" layer="1"/>
<wire x1="10.705" y1="22.3" x2="10.875" y2="22.13" width="0.4064" layer="1"/>
</signal>
<signal name="PC4">
<contactref element="J9" pad="9"/>
</signal>
<signal name="PC5">
<contactref element="J9" pad="10"/>
</signal>
<signal name="PC6">
<contactref element="J9" pad="11"/>
</signal>
<signal name="PC7">
<contactref element="J9" pad="12"/>
</signal>
<signal name="PD4">
<contactref element="J9" pad="13"/>
</signal>
<signal name="PD5">
<contactref element="J9" pad="14"/>
</signal>
<signal name="PD6">
<contactref element="J9" pad="15"/>
</signal>
<signal name="+5V">
<contactref element="J15" pad="5"/>
<contactref element="J15" pad="6"/>
<contactref element="J15" pad="7"/>
<contactref element="J15" pad="8"/>
<wire x1="13.415" y1="27.21" x2="13.415" y2="29.75" width="0" layer="19" extent="1-1"/>
<wire x1="13.415" y1="24.67" x2="13.415" y2="27.21" width="0" layer="19" extent="1-1"/>
<wire x1="13.415" y1="22.13" x2="13.415" y2="24.67" width="0" layer="19" extent="1-1"/>
</signal>
<signal name="+3V3">
<contactref element="R_F" pad="2"/>
<contactref element="J15" pad="9"/>
<contactref element="J15" pad="10"/>
<contactref element="J15" pad="11"/>
<contactref element="J15" pad="12"/>
<contactref element="J15" pad="13"/>
<contactref element="J15" pad="14"/>
<contactref element="J15" pad="15"/>
<contactref element="J15" pad="16"/>
<wire x1="13.40986875" y1="1.81" x2="13.415" y2="1.81" width="0.4064" layer="1"/>
<wire x1="11.75886875" y1="0.159" x2="13.40986875" y2="1.81" width="0.4064" layer="1"/>
<wire x1="9.619" y1="0.159" x2="11.75886875" y2="0.159" width="0.4064" layer="1"/>
<wire x1="7.1" y1="2.678" x2="9.619" y2="0.159" width="0.4064" layer="1"/>
<wire x1="13.415" y1="17.05" x2="13.415" y2="19.59" width="0" layer="19" extent="1-1"/>
<wire x1="13.415" y1="14.51" x2="13.415" y2="17.05" width="0" layer="19" extent="1-1"/>
<wire x1="13.415" y1="11.97" x2="13.415" y2="14.51" width="0" layer="19" extent="1-1"/>
<wire x1="13.415" y1="9.43" x2="13.415" y2="11.97" width="0" layer="19" extent="1-1"/>
<wire x1="13.415" y1="6.89" x2="13.415" y2="9.43" width="0" layer="19" extent="1-1"/>
<wire x1="13.415" y1="4.35" x2="13.415" y2="6.89" width="0" layer="19" extent="1-1"/>
<wire x1="13.415" y1="1.81" x2="13.415" y2="4.35" width="0" layer="19" extent="1-1"/>
</signal>
</signals>
<mfgpreviewcolors>
<mfgpreviewcolor name="soldermaskcolor" color="0xC8008000"/>
<mfgpreviewcolor name="silkscreencolor" color="0xFFFEFEFE"/>
<mfgpreviewcolor name="backgroundcolor" color="0xFF282828"/>
<mfgpreviewcolor name="coppercolor" color="0xFFFFBF00"/>
<mfgpreviewcolor name="substratecolor" color="0xFF786E46"/>
</mfgpreviewcolors>
</board>
</drawing>
<compatibility>
<note version="6.3" minversion="6.2.2" severity="warning">
Since Version 6.2.2 text objects can contain more than one line,
which will not be processed correctly with this version.
</note>
</compatibility>
</eagle>
